05/01/2022 08:45:40.771 - INFO {1} - CU.Program.Main { - } {} ,  - || - {} {} ==================Application is starting=================== 

05/01/2022 08:45:40.771 - INFO {1} - CU.Program.Main { - } {} ,  - || - {} {} ==================Application is starting=================== 

05/01/2022 08:45:42.043 - DEBUG {1} - CU.Services.InitService.Init { - } {} ,  - || - {} {} Root path C:\project\Chula\CU_HR\CU_InstructorExperts\CU 

05/01/2022 08:45:45.590 - INFO {1} - Quartz.Impl.StdSchedulerFactory.InitializeProperties { - } {} ,  - || - {} {} Default Quartz.NET properties loaded from embedded resource file 

05/01/2022 08:45:45.590 - INFO {1} - Quartz.Impl.StdSchedulerFactory.InitializeProperties { - } {} ,  - || - {} {} Default Quartz.NET properties loaded from embedded resource file 

05/01/2022 08:45:45.652 - DEBUG {1} - Quartz.Simpl.TaskSchedulingThreadPool.Initialize { - } {} ,  - || - {} {} TaskSchedulingThreadPool configured with max concurrency of 10 and TaskScheduler ThreadPoolTaskScheduler. 

05/01/2022 08:45:45.674 - INFO {1} - Quartz.Core.SchedulerSignalerImpl..ctor { - } {} ,  - || - {} {} Initialized Scheduler Signaller of type: Quartz.Core.SchedulerSignalerImpl 

05/01/2022 08:45:45.674 - INFO {1} - Quartz.Core.SchedulerSignalerImpl..ctor { - } {} ,  - || - {} {} Initialized Scheduler Signaller of type: Quartz.Core.SchedulerSignalerImpl 

05/01/2022 08:45:45.676 - INFO {1} - Quartz.Core.QuartzScheduler..ctor { - } {} ,  - || - {} {} Quartz Scheduler created 

05/01/2022 08:45:45.676 - INFO {1} - Quartz.Core.QuartzScheduler..ctor { - } {} ,  - || - {} {} Quartz Scheduler created 

05/01/2022 08:45:45.676 - INFO {1} - Quartz.Simpl.RAMJobStore.Initialize { - } {} ,  - || - {} {} RAMJobStore initialized. 

05/01/2022 08:45:45.676 - INFO {1} - Quartz.Simpl.RAMJobStore.Initialize { - } {} ,  - || - {} {} RAMJobStore initialized. 

05/01/2022 08:45:45.676 - INFO {1} - Quartz.Core.QuartzScheduler.Initialize { - } {} ,  - || - {} {} Scheduler meta-data: Quartz Scheduler (v3.3.3.0) 'DefaultQuartzScheduler' with instanceId 'NON_CLUSTERED'
  Scheduler class: 'Quartz.Core.QuartzScheduler' - running locally.
  NOT STARTED.
  Currently in standby mode.
  Number of jobs executed: 0
  Using thread pool 'Quartz.Simpl.DefaultThreadPool' - with 10 threads.
  Using job-store 'Quartz.Simpl.RAMJobStore' - which does not support persistence. and is not clustered.
 

05/01/2022 08:45:45.676 - INFO {1} - Quartz.Core.QuartzScheduler.Initialize { - } {} ,  - || - {} {} Scheduler meta-data: Quartz Scheduler (v3.3.3.0) 'DefaultQuartzScheduler' with instanceId 'NON_CLUSTERED'
  Scheduler class: 'Quartz.Core.QuartzScheduler' - running locally.
  NOT STARTED.
  Currently in standby mode.
  Number of jobs executed: 0
  Using thread pool 'Quartz.Simpl.DefaultThreadPool' - with 10 threads.
  Using job-store 'Quartz.Simpl.RAMJobStore' - which does not support persistence. and is not clustered.
 

05/01/2022 08:45:45.690 - INFO {1} - Quartz.Impl.StdSchedulerFactory.Instantiate { - } {} ,  - || - {} {} Quartz scheduler 'DefaultQuartzScheduler' initialized 

05/01/2022 08:45:45.690 - INFO {1} - Quartz.Impl.StdSchedulerFactory.Instantiate { - } {} ,  - || - {} {} Quartz scheduler 'DefaultQuartzScheduler' initialized 

05/01/2022 08:45:45.690 - INFO {1} - Quartz.Impl.StdSchedulerFactory.Instantiate { - } {} ,  - || - {} {} Quartz scheduler version: 3.3.3.0 

05/01/2022 08:45:45.690 - INFO {1} - Quartz.Impl.StdSchedulerFactory.Instantiate { - } {} ,  - || - {} {} Quartz scheduler version: 3.3.3.0 

05/01/2022 08:45:45.767 - INFO {1} - Quartz.Core.QuartzScheduler.Start { - } {} ,  - || - {} {} Scheduler DefaultQuartzScheduler_$_NON_CLUSTERED started. 

05/01/2022 08:45:45.767 - INFO {1} - Quartz.Core.QuartzScheduler.Start { - } {} ,  - || - {} {} Scheduler DefaultQuartzScheduler_$_NON_CLUSTERED started. 

05/01/2022 08:45:45.789 - DEBUG {4} - Quartz.Logging.LogProviders.NLogLogProvider+NLogLogger.Log { - } {} ,  - || - {} {} Batch acquisition of 1 triggers 

05/01/2022 08:45:46.762 - INFO {1} - Microsoft.Extensions.Hosting.Internal.ConsoleLifetime.OnApplicationStarted { - } {} ,  - || - {} {} Application started. Press Ctrl+C to shut down. 

05/01/2022 08:45:46.762 - INFO {1} - Microsoft.Extensions.Hosting.Internal.ConsoleLifetime.OnApplicationStarted { - } {} ,  - || - {} {} Application started. Press Ctrl+C to shut down. 

05/01/2022 08:45:47.093 - INFO {1} - Microsoft.Extensions.Hosting.Internal.ConsoleLifetime.OnApplicationStarted { - } {} ,  - || - {} {} Hosting environment: Development 

05/01/2022 08:45:47.093 - INFO {1} - Microsoft.Extensions.Hosting.Internal.ConsoleLifetime.OnApplicationStarted { - } {} ,  - || - {} {} Hosting environment: Development 

05/01/2022 08:45:47.117 - INFO {1} - Microsoft.Extensions.Hosting.Internal.ConsoleLifetime.OnApplicationStarted { - } {} ,  - || - {} {} Content root path: C:\project\Chula\CU_HR\CU_InstructorExperts\CU 

05/01/2022 08:45:47.117 - INFO {1} - Microsoft.Extensions.Hosting.Internal.ConsoleLifetime.OnApplicationStarted { - } {} ,  - || - {} {} Content root path: C:\project\Chula\CU_HR\CU_InstructorExperts\CU 

05/01/2022 08:45:53.940 - INFO {7} - CU.Controllers.HomeController.Index {127.0.0.1 - localhost:44339} {https://localhost/} , Mozilla/5.0 (Windows NT 10.0; Win64; x64) AppleWebKit/537.36 (KHTML, like Gecko) Chrome/96.0.4664.110 Safari/537.36 - || - {} {} SystemAdmin logged in (Session : fc4f274c-cf4b-753c-c70d-846143854bcb) 

05/01/2022 08:45:53.940 - INFO {7} - CU.Controllers.HomeController.Index {127.0.0.1 - localhost:44339} {https://localhost/} , Mozilla/5.0 (Windows NT 10.0; Win64; x64) AppleWebKit/537.36 (KHTML, like Gecko) Chrome/96.0.4664.110 Safari/537.36 - || - {} {} SystemAdmin logged in (Session : fc4f274c-cf4b-753c-c70d-846143854bcb) 

05/01/2022 08:46:00.075 - DEBUG {4} - Quartz.Simpl.SimpleJobFactory.NewJob { - } {} ,  - || - {} {} Producing instance of Job 'MasterJobGroup.MasterJob', class=CU.Job.MasterJob 

05/01/2022 08:46:00.075 - DEBUG {4} - Quartz.Logging.LogProviders.NLogLogProvider+NLogLogger.Log { - } {} ,  - || - {} {} Batch acquisition of 0 triggers 

05/01/2022 08:46:00.100 - DEBUG {21} - Quartz.Core.JobRunShell.Run { - } {} ,  - || - {} {} Calling Execute on job MasterJobGroup.MasterJob 

05/01/2022 08:46:00.327 - ERROR {10} - CU.Services.CronJobService.CalNextRunAll { - } {} ,  - || - {} {} Job : SyncCUDataJob is time out 

05/01/2022 08:46:00.327 - ERROR {10} - CU.Services.CronJobService.CalNextRunAll { - } {} ,  - || - {} {} Job : SyncCUDataJob is time out 

05/01/2022 08:46:00.341 - ERROR {10} - CU.Services.CronJobService.CalNextRunAll { - } {} ,  - || - {} {} Job : LoadCSVInfoJob is time out 

05/01/2022 08:46:00.341 - ERROR {10} - CU.Services.CronJobService.CalNextRunAll { - } {} ,  - || - {} {} Job : LoadCSVInfoJob is time out 

05/01/2022 08:46:00.355 - ERROR {10} - CU.Services.CronJobService.CalNextRunAll { - } {} ,  - || - {} {} Job : SMSDeliveryJob is time out 

05/01/2022 08:46:00.355 - ERROR {10} - CU.Services.CronJobService.CalNextRunAll { - } {} ,  - || - {} {} Job : SMSDeliveryJob is time out 

05/01/2022 08:46:00.367 - ERROR {10} - CU.Services.CronJobService.CalNextRunAll { - } {} ,  - || - {} {} Job : GenDataIDMJob is time out 

05/01/2022 08:46:00.367 - ERROR {10} - CU.Services.CronJobService.CalNextRunAll { - } {} ,  - || - {} {} Job : GenDataIDMJob is time out 

05/01/2022 08:46:00.379 - ERROR {10} - CU.Services.CronJobService.CalNextRunAll { - } {} ,  - || - {} {} Job : CleanDataJob is time out 

05/01/2022 08:46:00.379 - ERROR {10} - CU.Services.CronJobService.CalNextRunAll { - } {} ,  - || - {} {} Job : CleanDataJob is time out 

05/01/2022 08:46:00.428 - DEBUG {10} - CU.Services.CronJobService.CalNextRunAll { - } {} ,  - || - {} {} Successfully calculated next run for all jobs! 

05/01/2022 08:46:00.428 - DEBUG {10} - Quartz.Core.JobRunShell+<Run>d__10.MoveNext { - } {} ,  - || - {} {} Trigger instruction : NoInstruction 

05/01/2022 08:46:00.428 - DEBUG {4} - Quartz.Logging.LogProviders.NLogLogProvider+NLogLogger.Log { - } {} ,  - || - {} {} Batch acquisition of 0 triggers 

05/01/2022 08:46:24.776 - DEBUG {4} - Quartz.Logging.LogProviders.NLogLogProvider+NLogLogger.Log { - } {} ,  - || - {} {} Batch acquisition of 0 triggers 

05/01/2022 08:46:49.285 - DEBUG {4} - Quartz.Logging.LogProviders.NLogLogProvider+NLogLogger.Log { - } {} ,  - || - {} {} Batch acquisition of 1 triggers 

05/01/2022 08:47:00.004 - DEBUG {4} - Quartz.Simpl.SimpleJobFactory.NewJob { - } {} ,  - || - {} {} Producing instance of Job 'MasterJobGroup.MasterJob', class=CU.Job.MasterJob 

05/01/2022 08:47:00.004 - DEBUG {4} - Quartz.Logging.LogProviders.NLogLogProvider+NLogLogger.Log { - } {} ,  - || - {} {} Batch acquisition of 0 triggers 

05/01/2022 08:47:00.004 - DEBUG {37} - Quartz.Core.JobRunShell.Run { - } {} ,  - || - {} {} Calling Execute on job MasterJobGroup.MasterJob 

05/01/2022 08:47:00.052 - DEBUG {37} - Quartz.Core.JobRunShell+<Run>d__10.MoveNext { - } {} ,  - || - {} {} Trigger instruction : NoInstruction 

05/01/2022 08:47:00.052 - DEBUG {4} - Quartz.Logging.LogProviders.NLogLogProvider+NLogLogger.Log { - } {} ,  - || - {} {} Batch acquisition of 0 triggers 

05/01/2022 08:47:26.308 - DEBUG {4} - Quartz.Logging.LogProviders.NLogLogProvider+NLogLogger.Log { - } {} ,  - || - {} {} Batch acquisition of 0 triggers 

05/01/2022 08:47:56.101 - DEBUG {4} - Quartz.Logging.LogProviders.NLogLogProvider+NLogLogger.Log { - } {} ,  - || - {} {} Batch acquisition of 1 triggers 

05/01/2022 08:48:00.014 - DEBUG {4} - Quartz.Simpl.SimpleJobFactory.NewJob { - } {} ,  - || - {} {} Producing instance of Job 'MasterJobGroup.MasterJob', class=CU.Job.MasterJob 

05/01/2022 08:48:00.014 - DEBUG {4} - Quartz.Logging.LogProviders.NLogLogProvider+NLogLogger.Log { - } {} ,  - || - {} {} Batch acquisition of 0 triggers 

05/01/2022 08:48:00.023 - DEBUG {42} - Quartz.Core.JobRunShell.Run { - } {} ,  - || - {} {} Calling Execute on job MasterJobGroup.MasterJob 

05/01/2022 08:48:00.065 - DEBUG {43} - Quartz.Core.JobRunShell+<Run>d__10.MoveNext { - } {} ,  - || - {} {} Trigger instruction : NoInstruction 

05/01/2022 08:48:00.065 - DEBUG {4} - Quartz.Logging.LogProviders.NLogLogProvider+NLogLogger.Log { - } {} ,  - || - {} {} Batch acquisition of 0 triggers 

05/01/2022 08:48:25.453 - DEBUG {4} - Quartz.Logging.LogProviders.NLogLogProvider+NLogLogger.Log { - } {} ,  - || - {} {} Batch acquisition of 0 triggers 

05/01/2022 08:48:50.187 - DEBUG {4} - Quartz.Logging.LogProviders.NLogLogProvider+NLogLogger.Log { - } {} ,  - || - {} {} Batch acquisition of 1 triggers 

05/01/2022 08:49:00.012 - DEBUG {4} - Quartz.Simpl.SimpleJobFactory.NewJob { - } {} ,  - || - {} {} Producing instance of Job 'MasterJobGroup.MasterJob', class=CU.Job.MasterJob 

05/01/2022 08:49:00.012 - DEBUG {4} - Quartz.Logging.LogProviders.NLogLogProvider+NLogLogger.Log { - } {} ,  - || - {} {} Batch acquisition of 0 triggers 

05/01/2022 08:49:00.012 - DEBUG {41} - Quartz.Core.JobRunShell.Run { - } {} ,  - || - {} {} Calling Execute on job MasterJobGroup.MasterJob 

05/01/2022 08:49:00.047 - DEBUG {44} - Quartz.Core.JobRunShell+<Run>d__10.MoveNext { - } {} ,  - || - {} {} Trigger instruction : NoInstruction 

05/01/2022 08:49:00.047 - DEBUG {4} - Quartz.Logging.LogProviders.NLogLogProvider+NLogLogger.Log { - } {} ,  - || - {} {} Batch acquisition of 0 triggers 

05/01/2022 08:49:27.000 - DEBUG {4} - Quartz.Logging.LogProviders.NLogLogProvider+NLogLogger.Log { - } {} ,  - || - {} {} Batch acquisition of 0 triggers 

05/01/2022 08:49:53.465 - DEBUG {4} - Quartz.Logging.LogProviders.NLogLogProvider+NLogLogger.Log { - } {} ,  - || - {} {} Batch acquisition of 1 triggers 

05/01/2022 08:50:00.005 - DEBUG {4} - Quartz.Simpl.SimpleJobFactory.NewJob { - } {} ,  - || - {} {} Producing instance of Job 'MasterJobGroup.MasterJob', class=CU.Job.MasterJob 

05/01/2022 08:50:00.005 - DEBUG {4} - Quartz.Logging.LogProviders.NLogLogProvider+NLogLogger.Log { - } {} ,  - || - {} {} Batch acquisition of 0 triggers 

05/01/2022 08:50:00.005 - DEBUG {49} - Quartz.Core.JobRunShell.Run { - } {} ,  - || - {} {} Calling Execute on job MasterJobGroup.MasterJob 

05/01/2022 08:50:00.053 - DEBUG {50} - Quartz.Core.JobRunShell+<Run>d__10.MoveNext { - } {} ,  - || - {} {} Trigger instruction : NoInstruction 

05/01/2022 08:50:00.053 - DEBUG {4} - Quartz.Logging.LogProviders.NLogLogProvider+NLogLogger.Log { - } {} ,  - || - {} {} Batch acquisition of 0 triggers 

05/01/2022 08:50:29.393 - DEBUG {4} - Quartz.Logging.LogProviders.NLogLogProvider+NLogLogger.Log { - } {} ,  - || - {} {} Batch acquisition of 0 triggers 

05/01/2022 08:50:56.651 - DEBUG {4} - Quartz.Logging.LogProviders.NLogLogProvider+NLogLogger.Log { - } {} ,  - || - {} {} Batch acquisition of 1 triggers 

05/01/2022 08:51:00.004 - DEBUG {4} - Quartz.Simpl.SimpleJobFactory.NewJob { - } {} ,  - || - {} {} Producing instance of Job 'MasterJobGroup.MasterJob', class=CU.Job.MasterJob 

05/01/2022 08:51:00.007 - DEBUG {4} - Quartz.Logging.LogProviders.NLogLogProvider+NLogLogger.Log { - } {} ,  - || - {} {} Batch acquisition of 0 triggers 

05/01/2022 08:51:00.007 - DEBUG {58} - Quartz.Core.JobRunShell.Run { - } {} ,  - || - {} {} Calling Execute on job MasterJobGroup.MasterJob 

05/01/2022 08:51:00.046 - DEBUG {57} - Quartz.Core.JobRunShell+<Run>d__10.MoveNext { - } {} ,  - || - {} {} Trigger instruction : NoInstruction 

05/01/2022 08:51:00.046 - DEBUG {4} - Quartz.Logging.LogProviders.NLogLogProvider+NLogLogger.Log { - } {} ,  - || - {} {} Batch acquisition of 0 triggers 

05/01/2022 08:51:25.216 - DEBUG {4} - Quartz.Logging.LogProviders.NLogLogProvider+NLogLogger.Log { - } {} ,  - || - {} {} Batch acquisition of 0 triggers 

05/01/2022 08:51:50.394 - DEBUG {4} - Quartz.Logging.LogProviders.NLogLogProvider+NLogLogger.Log { - } {} ,  - || - {} {} Batch acquisition of 1 triggers 

05/01/2022 08:52:00.007 - DEBUG {4} - Quartz.Simpl.SimpleJobFactory.NewJob { - } {} ,  - || - {} {} Producing instance of Job 'MasterJobGroup.MasterJob', class=CU.Job.MasterJob 

05/01/2022 08:52:00.010 - DEBUG {4} - Quartz.Logging.LogProviders.NLogLogProvider+NLogLogger.Log { - } {} ,  - || - {} {} Batch acquisition of 0 triggers 

05/01/2022 08:52:00.010 - DEBUG {66} - Quartz.Core.JobRunShell.Run { - } {} ,  - || - {} {} Calling Execute on job MasterJobGroup.MasterJob 

05/01/2022 08:52:00.068 - DEBUG {66} - Quartz.Core.JobRunShell+<Run>d__10.MoveNext { - } {} ,  - || - {} {} Trigger instruction : NoInstruction 

05/01/2022 08:52:00.068 - DEBUG {4} - Quartz.Logging.LogProviders.NLogLogProvider+NLogLogger.Log { - } {} ,  - || - {} {} Batch acquisition of 0 triggers 

05/01/2022 08:52:23.576 - DEBUG {4} - Quartz.Logging.LogProviders.NLogLogProvider+NLogLogger.Log { - } {} ,  - || - {} {} Batch acquisition of 0 triggers 

05/01/2022 08:52:47.445 - DEBUG {4} - Quartz.Logging.LogProviders.NLogLogProvider+NLogLogger.Log { - } {} ,  - || - {} {} Batch acquisition of 1 triggers 

05/01/2022 08:53:00.006 - DEBUG {4} - Quartz.Simpl.SimpleJobFactory.NewJob { - } {} ,  - || - {} {} Producing instance of Job 'MasterJobGroup.MasterJob', class=CU.Job.MasterJob 

05/01/2022 08:53:00.006 - DEBUG {4} - Quartz.Logging.LogProviders.NLogLogProvider+NLogLogger.Log { - } {} ,  - || - {} {} Batch acquisition of 0 triggers 

05/01/2022 08:53:00.006 - DEBUG {66} - Quartz.Core.JobRunShell.Run { - } {} ,  - || - {} {} Calling Execute on job MasterJobGroup.MasterJob 

05/01/2022 08:53:00.051 - DEBUG {73} - Quartz.Core.JobRunShell+<Run>d__10.MoveNext { - } {} ,  - || - {} {} Trigger instruction : NoInstruction 

05/01/2022 08:53:00.051 - DEBUG {4} - Quartz.Logging.LogProviders.NLogLogProvider+NLogLogger.Log { - } {} ,  - || - {} {} Batch acquisition of 0 triggers 

05/01/2022 08:53:25.880 - DEBUG {4} - Quartz.Logging.LogProviders.NLogLogProvider+NLogLogger.Log { - } {} ,  - || - {} {} Batch acquisition of 0 triggers 

05/01/2022 08:53:52.929 - DEBUG {4} - Quartz.Logging.LogProviders.NLogLogProvider+NLogLogger.Log { - } {} ,  - || - {} {} Batch acquisition of 1 triggers 

05/01/2022 08:54:00.015 - DEBUG {4} - Quartz.Simpl.SimpleJobFactory.NewJob { - } {} ,  - || - {} {} Producing instance of Job 'MasterJobGroup.MasterJob', class=CU.Job.MasterJob 

05/01/2022 08:54:00.015 - DEBUG {4} - Quartz.Logging.LogProviders.NLogLogProvider+NLogLogger.Log { - } {} ,  - || - {} {} Batch acquisition of 0 triggers 

05/01/2022 08:54:00.015 - DEBUG {74} - Quartz.Core.JobRunShell.Run { - } {} ,  - || - {} {} Calling Execute on job MasterJobGroup.MasterJob 

05/01/2022 08:54:00.077 - DEBUG {74} - Quartz.Core.JobRunShell+<Run>d__10.MoveNext { - } {} ,  - || - {} {} Trigger instruction : NoInstruction 

05/01/2022 08:54:00.077 - DEBUG {4} - Quartz.Logging.LogProviders.NLogLogProvider+NLogLogger.Log { - } {} ,  - || - {} {} Batch acquisition of 0 triggers 

05/01/2022 08:54:24.679 - DEBUG {4} - Quartz.Logging.LogProviders.NLogLogProvider+NLogLogger.Log { - } {} ,  - || - {} {} Batch acquisition of 0 triggers 

05/01/2022 08:54:53.945 - DEBUG {4} - Quartz.Logging.LogProviders.NLogLogProvider+NLogLogger.Log { - } {} ,  - || - {} {} Batch acquisition of 1 triggers 

05/01/2022 08:55:00.000 - DEBUG {4} - Quartz.Simpl.SimpleJobFactory.NewJob { - } {} ,  - || - {} {} Producing instance of Job 'MasterJobGroup.MasterJob', class=CU.Job.MasterJob 

05/01/2022 08:55:00.000 - DEBUG {4} - Quartz.Logging.LogProviders.NLogLogProvider+NLogLogger.Log { - } {} ,  - || - {} {} Batch acquisition of 0 triggers 

05/01/2022 08:55:00.000 - DEBUG {78} - Quartz.Core.JobRunShell.Run { - } {} ,  - || - {} {} Calling Execute on job MasterJobGroup.MasterJob 

05/01/2022 08:55:00.061 - DEBUG {78} - Quartz.Core.JobRunShell+<Run>d__10.MoveNext { - } {} ,  - || - {} {} Trigger instruction : NoInstruction 

05/01/2022 08:55:00.061 - DEBUG {4} - Quartz.Logging.LogProviders.NLogLogProvider+NLogLogger.Log { - } {} ,  - || - {} {} Batch acquisition of 0 triggers 

05/01/2022 08:55:25.727 - DEBUG {4} - Quartz.Logging.LogProviders.NLogLogProvider+NLogLogger.Log { - } {} ,  - || - {} {} Batch acquisition of 0 triggers 

05/01/2022 08:55:49.981 - DEBUG {4} - Quartz.Logging.LogProviders.NLogLogProvider+NLogLogger.Log { - } {} ,  - || - {} {} Batch acquisition of 1 triggers 

05/01/2022 08:56:00.006 - DEBUG {4} - Quartz.Simpl.SimpleJobFactory.NewJob { - } {} ,  - || - {} {} Producing instance of Job 'MasterJobGroup.MasterJob', class=CU.Job.MasterJob 

05/01/2022 08:56:00.006 - DEBUG {4} - Quartz.Logging.LogProviders.NLogLogProvider+NLogLogger.Log { - } {} ,  - || - {} {} Batch acquisition of 0 triggers 

05/01/2022 08:56:00.012 - DEBUG {82} - Quartz.Core.JobRunShell.Run { - } {} ,  - || - {} {} Calling Execute on job MasterJobGroup.MasterJob 

05/01/2022 08:56:00.044 - DEBUG {82} - Quartz.Core.JobRunShell+<Run>d__10.MoveNext { - } {} ,  - || - {} {} Trigger instruction : NoInstruction 

05/01/2022 08:56:00.044 - DEBUG {4} - Quartz.Logging.LogProviders.NLogLogProvider+NLogLogger.Log { - } {} ,  - || - {} {} Batch acquisition of 0 triggers 

05/01/2022 08:56:26.902 - DEBUG {4} - Quartz.Logging.LogProviders.NLogLogProvider+NLogLogger.Log { - } {} ,  - || - {} {} Batch acquisition of 0 triggers 

05/01/2022 08:56:54.321 - DEBUG {4} - Quartz.Logging.LogProviders.NLogLogProvider+NLogLogger.Log { - } {} ,  - || - {} {} Batch acquisition of 1 triggers 

05/01/2022 08:57:00.001 - DEBUG {4} - Quartz.Simpl.SimpleJobFactory.NewJob { - } {} ,  - || - {} {} Producing instance of Job 'MasterJobGroup.MasterJob', class=CU.Job.MasterJob 

05/01/2022 08:57:00.001 - DEBUG {4} - Quartz.Logging.LogProviders.NLogLogProvider+NLogLogger.Log { - } {} ,  - || - {} {} Batch acquisition of 0 triggers 

05/01/2022 08:57:00.001 - DEBUG {86} - Quartz.Core.JobRunShell.Run { - } {} ,  - || - {} {} Calling Execute on job MasterJobGroup.MasterJob 

05/01/2022 08:57:00.059 - DEBUG {86} - Quartz.Core.JobRunShell+<Run>d__10.MoveNext { - } {} ,  - || - {} {} Trigger instruction : NoInstruction 

05/01/2022 08:57:00.059 - DEBUG {4} - Quartz.Logging.LogProviders.NLogLogProvider+NLogLogger.Log { - } {} ,  - || - {} {} Batch acquisition of 0 triggers 

05/01/2022 08:57:26.239 - DEBUG {4} - Quartz.Logging.LogProviders.NLogLogProvider+NLogLogger.Log { - } {} ,  - || - {} {} Batch acquisition of 0 triggers 

05/01/2022 08:57:54.585 - DEBUG {4} - Quartz.Logging.LogProviders.NLogLogProvider+NLogLogger.Log { - } {} ,  - || - {} {} Batch acquisition of 1 triggers 

05/01/2022 08:58:00.001 - DEBUG {4} - Quartz.Simpl.SimpleJobFactory.NewJob { - } {} ,  - || - {} {} Producing instance of Job 'MasterJobGroup.MasterJob', class=CU.Job.MasterJob 

05/01/2022 08:58:00.001 - DEBUG {4} - Quartz.Logging.LogProviders.NLogLogProvider+NLogLogger.Log { - } {} ,  - || - {} {} Batch acquisition of 0 triggers 

05/01/2022 08:58:00.001 - DEBUG {91} - Quartz.Core.JobRunShell.Run { - } {} ,  - || - {} {} Calling Execute on job MasterJobGroup.MasterJob 

05/01/2022 08:58:00.051 - DEBUG {91} - Quartz.Core.JobRunShell+<Run>d__10.MoveNext { - } {} ,  - || - {} {} Trigger instruction : NoInstruction 

05/01/2022 08:58:00.051 - DEBUG {4} - Quartz.Logging.LogProviders.NLogLogProvider+NLogLogger.Log { - } {} ,  - || - {} {} Batch acquisition of 0 triggers 

05/01/2022 08:58:28.134 - DEBUG {4} - Quartz.Logging.LogProviders.NLogLogProvider+NLogLogger.Log { - } {} ,  - || - {} {} Batch acquisition of 0 triggers 

05/01/2022 08:58:55.181 - DEBUG {4} - Quartz.Logging.LogProviders.NLogLogProvider+NLogLogger.Log { - } {} ,  - || - {} {} Batch acquisition of 1 triggers 

05/01/2022 08:59:00.008 - DEBUG {4} - Quartz.Simpl.SimpleJobFactory.NewJob { - } {} ,  - || - {} {} Producing instance of Job 'MasterJobGroup.MasterJob', class=CU.Job.MasterJob 

05/01/2022 08:59:00.008 - DEBUG {4} - Quartz.Logging.LogProviders.NLogLogProvider+NLogLogger.Log { - } {} ,  - || - {} {} Batch acquisition of 0 triggers 

05/01/2022 08:59:00.012 - DEBUG {92} - Quartz.Core.JobRunShell.Run { - } {} ,  - || - {} {} Calling Execute on job MasterJobGroup.MasterJob 

05/01/2022 08:59:00.051 - DEBUG {92} - Quartz.Core.JobRunShell+<Run>d__10.MoveNext { - } {} ,  - || - {} {} Trigger instruction : NoInstruction 

05/01/2022 08:59:00.051 - DEBUG {4} - Quartz.Logging.LogProviders.NLogLogProvider+NLogLogger.Log { - } {} ,  - || - {} {} Batch acquisition of 0 triggers 

05/01/2022 08:59:23.370 - DEBUG {4} - Quartz.Logging.LogProviders.NLogLogProvider+NLogLogger.Log { - } {} ,  - || - {} {} Batch acquisition of 0 triggers 

05/01/2022 08:59:47.039 - DEBUG {4} - Quartz.Logging.LogProviders.NLogLogProvider+NLogLogger.Log { - } {} ,  - || - {} {} Batch acquisition of 1 triggers 

05/01/2022 09:00:00.012 - DEBUG {4} - Quartz.Simpl.SimpleJobFactory.NewJob { - } {} ,  - || - {} {} Producing instance of Job 'MasterJobGroup.MasterJob', class=CU.Job.MasterJob 

05/01/2022 09:00:00.012 - DEBUG {4} - Quartz.Logging.LogProviders.NLogLogProvider+NLogLogger.Log { - } {} ,  - || - {} {} Batch acquisition of 0 triggers 

05/01/2022 09:00:00.012 - DEBUG {96} - Quartz.Core.JobRunShell.Run { - } {} ,  - || - {} {} Calling Execute on job MasterJobGroup.MasterJob 

05/01/2022 09:00:00.071 - DEBUG {96} - Quartz.Core.JobRunShell+<Run>d__10.MoveNext { - } {} ,  - || - {} {} Trigger instruction : NoInstruction 

05/01/2022 09:00:00.071 - DEBUG {4} - Quartz.Logging.LogProviders.NLogLogProvider+NLogLogger.Log { - } {} ,  - || - {} {} Batch acquisition of 0 triggers 

05/01/2022 09:00:28.633 - DEBUG {4} - Quartz.Logging.LogProviders.NLogLogProvider+NLogLogger.Log { - } {} ,  - || - {} {} Batch acquisition of 0 triggers 

05/01/2022 09:00:53.243 - DEBUG {4} - Quartz.Logging.LogProviders.NLogLogProvider+NLogLogger.Log { - } {} ,  - || - {} {} Batch acquisition of 1 triggers 

05/01/2022 09:01:00.006 - DEBUG {4} - Quartz.Simpl.SimpleJobFactory.NewJob { - } {} ,  - || - {} {} Producing instance of Job 'MasterJobGroup.MasterJob', class=CU.Job.MasterJob 

05/01/2022 09:01:00.006 - DEBUG {4} - Quartz.Logging.LogProviders.NLogLogProvider+NLogLogger.Log { - } {} ,  - || - {} {} Batch acquisition of 0 triggers 

05/01/2022 09:01:00.006 - DEBUG {104} - Quartz.Core.JobRunShell.Run { - } {} ,  - || - {} {} Calling Execute on job MasterJobGroup.MasterJob 

05/01/2022 09:01:00.039 - DEBUG {106} - Quartz.Core.JobRunShell+<Run>d__10.MoveNext { - } {} ,  - || - {} {} Trigger instruction : NoInstruction 

05/01/2022 09:01:00.039 - DEBUG {4} - Quartz.Logging.LogProviders.NLogLogProvider+NLogLogger.Log { - } {} ,  - || - {} {} Batch acquisition of 0 triggers 

05/01/2022 09:01:28.946 - DEBUG {4} - Quartz.Logging.LogProviders.NLogLogProvider+NLogLogger.Log { - } {} ,  - || - {} {} Batch acquisition of 0 triggers 

05/01/2022 09:01:58.436 - DEBUG {4} - Quartz.Logging.LogProviders.NLogLogProvider+NLogLogger.Log { - } {} ,  - || - {} {} Batch acquisition of 1 triggers 

05/01/2022 09:02:00.000 - DEBUG {4} - Quartz.Simpl.SimpleJobFactory.NewJob { - } {} ,  - || - {} {} Producing instance of Job 'MasterJobGroup.MasterJob', class=CU.Job.MasterJob 

05/01/2022 09:02:00.000 - DEBUG {4} - Quartz.Logging.LogProviders.NLogLogProvider+NLogLogger.Log { - } {} ,  - || - {} {} Batch acquisition of 0 triggers 

05/01/2022 09:02:00.000 - DEBUG {109} - Quartz.Core.JobRunShell.Run { - } {} ,  - || - {} {} Calling Execute on job MasterJobGroup.MasterJob 

05/01/2022 09:02:00.034 - DEBUG {105} - Quartz.Core.JobRunShell+<Run>d__10.MoveNext { - } {} ,  - || - {} {} Trigger instruction : NoInstruction 

05/01/2022 09:02:00.034 - DEBUG {4} - Quartz.Logging.LogProviders.NLogLogProvider+NLogLogger.Log { - } {} ,  - || - {} {} Batch acquisition of 0 triggers 

05/01/2022 09:02:29.075 - DEBUG {4} - Quartz.Logging.LogProviders.NLogLogProvider+NLogLogger.Log { - } {} ,  - || - {} {} Batch acquisition of 0 triggers 

05/01/2022 09:02:54.184 - DEBUG {4} - Quartz.Logging.LogProviders.NLogLogProvider+NLogLogger.Log { - } {} ,  - || - {} {} Batch acquisition of 1 triggers 

05/01/2022 09:03:00.010 - DEBUG {4} - Quartz.Simpl.SimpleJobFactory.NewJob { - } {} ,  - || - {} {} Producing instance of Job 'MasterJobGroup.MasterJob', class=CU.Job.MasterJob 

05/01/2022 09:03:00.010 - DEBUG {4} - Quartz.Logging.LogProviders.NLogLogProvider+NLogLogger.Log { - } {} ,  - || - {} {} Batch acquisition of 0 triggers 

05/01/2022 09:03:00.010 - DEBUG {125} - Quartz.Core.JobRunShell.Run { - } {} ,  - || - {} {} Calling Execute on job MasterJobGroup.MasterJob 

05/01/2022 09:03:00.042 - DEBUG {105} - Quartz.Core.JobRunShell+<Run>d__10.MoveNext { - } {} ,  - || - {} {} Trigger instruction : NoInstruction 

05/01/2022 09:03:00.042 - DEBUG {4} - Quartz.Logging.LogProviders.NLogLogProvider+NLogLogger.Log { - } {} ,  - || - {} {} Batch acquisition of 0 triggers 

05/01/2022 09:03:23.136 - DEBUG {4} - Quartz.Logging.LogProviders.NLogLogProvider+NLogLogger.Log { - } {} ,  - || - {} {} Batch acquisition of 0 triggers 

05/01/2022 09:03:46.976 - DEBUG {4} - Quartz.Logging.LogProviders.NLogLogProvider+NLogLogger.Log { - } {} ,  - || - {} {} Batch acquisition of 1 triggers 

05/01/2022 09:04:00.005 - DEBUG {4} - Quartz.Simpl.SimpleJobFactory.NewJob { - } {} ,  - || - {} {} Producing instance of Job 'MasterJobGroup.MasterJob', class=CU.Job.MasterJob 

05/01/2022 09:04:00.006 - DEBUG {117} - Quartz.Core.JobRunShell.Run { - } {} ,  - || - {} {} Calling Execute on job MasterJobGroup.MasterJob 

05/01/2022 09:04:00.006 - DEBUG {4} - Quartz.Logging.LogProviders.NLogLogProvider+NLogLogger.Log { - } {} ,  - || - {} {} Batch acquisition of 0 triggers 

05/01/2022 09:04:00.077 - DEBUG {127} - Quartz.Core.JobRunShell+<Run>d__10.MoveNext { - } {} ,  - || - {} {} Trigger instruction : NoInstruction 

05/01/2022 09:04:00.077 - DEBUG {4} - Quartz.Logging.LogProviders.NLogLogProvider+NLogLogger.Log { - } {} ,  - || - {} {} Batch acquisition of 0 triggers 

05/01/2022 09:04:27.815 - DEBUG {4} - Quartz.Logging.LogProviders.NLogLogProvider+NLogLogger.Log { - } {} ,  - || - {} {} Batch acquisition of 0 triggers 

05/01/2022 09:04:57.803 - DEBUG {4} - Quartz.Logging.LogProviders.NLogLogProvider+NLogLogger.Log { - } {} ,  - || - {} {} Batch acquisition of 1 triggers 

05/01/2022 09:05:00.005 - DEBUG {4} - Quartz.Simpl.SimpleJobFactory.NewJob { - } {} ,  - || - {} {} Producing instance of Job 'MasterJobGroup.MasterJob', class=CU.Job.MasterJob 

05/01/2022 09:05:00.005 - DEBUG {148} - Quartz.Core.JobRunShell.Run { - } {} ,  - || - {} {} Calling Execute on job MasterJobGroup.MasterJob 

05/01/2022 09:05:00.005 - DEBUG {4} - Quartz.Logging.LogProviders.NLogLogProvider+NLogLogger.Log { - } {} ,  - || - {} {} Batch acquisition of 0 triggers 

05/01/2022 09:05:00.032 - DEBUG {149} - Quartz.Core.JobRunShell+<Run>d__10.MoveNext { - } {} ,  - || - {} {} Trigger instruction : NoInstruction 

05/01/2022 09:05:00.032 - DEBUG {4} - Quartz.Logging.LogProviders.NLogLogProvider+NLogLogger.Log { - } {} ,  - || - {} {} Batch acquisition of 0 triggers 

05/01/2022 09:05:26.994 - DEBUG {4} - Quartz.Logging.LogProviders.NLogLogProvider+NLogLogger.Log { - } {} ,  - || - {} {} Batch acquisition of 0 triggers 

05/01/2022 09:05:51.518 - DEBUG {4} - Quartz.Logging.LogProviders.NLogLogProvider+NLogLogger.Log { - } {} ,  - || - {} {} Batch acquisition of 1 triggers 

05/01/2022 09:06:00.004 - DEBUG {4} - Quartz.Simpl.SimpleJobFactory.NewJob { - } {} ,  - || - {} {} Producing instance of Job 'MasterJobGroup.MasterJob', class=CU.Job.MasterJob 

05/01/2022 09:06:00.004 - DEBUG {4} - Quartz.Logging.LogProviders.NLogLogProvider+NLogLogger.Log { - } {} ,  - || - {} {} Batch acquisition of 0 triggers 

05/01/2022 09:06:00.004 - DEBUG {156} - Quartz.Core.JobRunShell.Run { - } {} ,  - || - {} {} Calling Execute on job MasterJobGroup.MasterJob 

05/01/2022 09:06:00.033 - DEBUG {157} - Quartz.Core.JobRunShell+<Run>d__10.MoveNext { - } {} ,  - || - {} {} Trigger instruction : NoInstruction 

05/01/2022 09:06:00.033 - DEBUG {4} - Quartz.Logging.LogProviders.NLogLogProvider+NLogLogger.Log { - } {} ,  - || - {} {} Batch acquisition of 0 triggers 

05/01/2022 09:06:29.002 - DEBUG {4} - Quartz.Logging.LogProviders.NLogLogProvider+NLogLogger.Log { - } {} ,  - || - {} {} Batch acquisition of 0 triggers 

05/01/2022 09:06:57.328 - DEBUG {4} - Quartz.Logging.LogProviders.NLogLogProvider+NLogLogger.Log { - } {} ,  - || - {} {} Batch acquisition of 1 triggers 

05/01/2022 09:07:00.003 - DEBUG {4} - Quartz.Simpl.SimpleJobFactory.NewJob { - } {} ,  - || - {} {} Producing instance of Job 'MasterJobGroup.MasterJob', class=CU.Job.MasterJob 

05/01/2022 09:07:00.005 - DEBUG {159} - Quartz.Core.JobRunShell.Run { - } {} ,  - || - {} {} Calling Execute on job MasterJobGroup.MasterJob 

05/01/2022 09:07:00.003 - DEBUG {4} - Quartz.Logging.LogProviders.NLogLogProvider+NLogLogger.Log { - } {} ,  - || - {} {} Batch acquisition of 0 triggers 

05/01/2022 09:07:00.037 - DEBUG {160} - Quartz.Core.JobRunShell+<Run>d__10.MoveNext { - } {} ,  - || - {} {} Trigger instruction : NoInstruction 

05/01/2022 09:07:00.037 - DEBUG {4} - Quartz.Logging.LogProviders.NLogLogProvider+NLogLogger.Log { - } {} ,  - || - {} {} Batch acquisition of 0 triggers 

05/01/2022 09:07:24.537 - DEBUG {4} - Quartz.Logging.LogProviders.NLogLogProvider+NLogLogger.Log { - } {} ,  - || - {} {} Batch acquisition of 0 triggers 

05/01/2022 09:07:51.802 - DEBUG {4} - Quartz.Logging.LogProviders.NLogLogProvider+NLogLogger.Log { - } {} ,  - || - {} {} Batch acquisition of 1 triggers 

05/01/2022 09:08:00.006 - DEBUG {4} - Quartz.Simpl.SimpleJobFactory.NewJob { - } {} ,  - || - {} {} Producing instance of Job 'MasterJobGroup.MasterJob', class=CU.Job.MasterJob 

05/01/2022 09:08:00.006 - DEBUG {4} - Quartz.Logging.LogProviders.NLogLogProvider+NLogLogger.Log { - } {} ,  - || - {} {} Batch acquisition of 0 triggers 

05/01/2022 09:08:00.006 - DEBUG {164} - Quartz.Core.JobRunShell.Run { - } {} ,  - || - {} {} Calling Execute on job MasterJobGroup.MasterJob 

05/01/2022 09:08:00.045 - DEBUG {163} - Quartz.Core.JobRunShell+<Run>d__10.MoveNext { - } {} ,  - || - {} {} Trigger instruction : NoInstruction 

05/01/2022 09:08:00.045 - DEBUG {4} - Quartz.Logging.LogProviders.NLogLogProvider+NLogLogger.Log { - } {} ,  - || - {} {} Batch acquisition of 0 triggers 

05/01/2022 09:08:27.951 - DEBUG {4} - Quartz.Logging.LogProviders.NLogLogProvider+NLogLogger.Log { - } {} ,  - || - {} {} Batch acquisition of 0 triggers 

05/01/2022 09:08:54.268 - DEBUG {4} - Quartz.Logging.LogProviders.NLogLogProvider+NLogLogger.Log { - } {} ,  - || - {} {} Batch acquisition of 1 triggers 

05/01/2022 09:09:00.008 - DEBUG {4} - Quartz.Simpl.SimpleJobFactory.NewJob { - } {} ,  - || - {} {} Producing instance of Job 'MasterJobGroup.MasterJob', class=CU.Job.MasterJob 

05/01/2022 09:09:00.008 - DEBUG {167} - Quartz.Core.JobRunShell.Run { - } {} ,  - || - {} {} Calling Execute on job MasterJobGroup.MasterJob 

05/01/2022 09:09:00.008 - DEBUG {4} - Quartz.Logging.LogProviders.NLogLogProvider+NLogLogger.Log { - } {} ,  - || - {} {} Batch acquisition of 0 triggers 

05/01/2022 09:09:00.035 - DEBUG {166} - Quartz.Core.JobRunShell+<Run>d__10.MoveNext { - } {} ,  - || - {} {} Trigger instruction : NoInstruction 

05/01/2022 09:09:00.035 - DEBUG {4} - Quartz.Logging.LogProviders.NLogLogProvider+NLogLogger.Log { - } {} ,  - || - {} {} Batch acquisition of 0 triggers 

05/01/2022 09:09:27.160 - DEBUG {4} - Quartz.Logging.LogProviders.NLogLogProvider+NLogLogger.Log { - } {} ,  - || - {} {} Batch acquisition of 0 triggers 

05/01/2022 09:09:52.518 - DEBUG {4} - Quartz.Logging.LogProviders.NLogLogProvider+NLogLogger.Log { - } {} ,  - || - {} {} Batch acquisition of 1 triggers 

05/01/2022 09:10:00.007 - DEBUG {4} - Quartz.Simpl.SimpleJobFactory.NewJob { - } {} ,  - || - {} {} Producing instance of Job 'MasterJobGroup.MasterJob', class=CU.Job.MasterJob 

05/01/2022 09:10:00.007 - DEBUG {4} - Quartz.Logging.LogProviders.NLogLogProvider+NLogLogger.Log { - } {} ,  - || - {} {} Batch acquisition of 0 triggers 

05/01/2022 09:10:00.007 - DEBUG {169} - Quartz.Core.JobRunShell.Run { - } {} ,  - || - {} {} Calling Execute on job MasterJobGroup.MasterJob 

05/01/2022 09:10:00.044 - DEBUG {168} - Quartz.Core.JobRunShell+<Run>d__10.MoveNext { - } {} ,  - || - {} {} Trigger instruction : NoInstruction 

05/01/2022 09:10:00.044 - DEBUG {4} - Quartz.Logging.LogProviders.NLogLogProvider+NLogLogger.Log { - } {} ,  - || - {} {} Batch acquisition of 0 triggers 

05/01/2022 09:10:27.598 - DEBUG {4} - Quartz.Logging.LogProviders.NLogLogProvider+NLogLogger.Log { - } {} ,  - || - {} {} Batch acquisition of 0 triggers 

05/01/2022 09:10:56.470 - DEBUG {4} - Quartz.Logging.LogProviders.NLogLogProvider+NLogLogger.Log { - } {} ,  - || - {} {} Batch acquisition of 1 triggers 

05/01/2022 09:11:00.004 - DEBUG {4} - Quartz.Simpl.SimpleJobFactory.NewJob { - } {} ,  - || - {} {} Producing instance of Job 'MasterJobGroup.MasterJob', class=CU.Job.MasterJob 

05/01/2022 09:11:00.004 - DEBUG {172} - Quartz.Core.JobRunShell.Run { - } {} ,  - || - {} {} Calling Execute on job MasterJobGroup.MasterJob 

05/01/2022 09:11:00.004 - DEBUG {4} - Quartz.Logging.LogProviders.NLogLogProvider+NLogLogger.Log { - } {} ,  - || - {} {} Batch acquisition of 0 triggers 

05/01/2022 09:11:00.037 - DEBUG {173} - Quartz.Core.JobRunShell+<Run>d__10.MoveNext { - } {} ,  - || - {} {} Trigger instruction : NoInstruction 

05/01/2022 09:11:00.037 - DEBUG {4} - Quartz.Logging.LogProviders.NLogLogProvider+NLogLogger.Log { - } {} ,  - || - {} {} Batch acquisition of 0 triggers 

05/01/2022 09:11:25.187 - DEBUG {4} - Quartz.Logging.LogProviders.NLogLogProvider+NLogLogger.Log { - } {} ,  - || - {} {} Batch acquisition of 0 triggers 

05/01/2022 09:11:52.817 - DEBUG {4} - Quartz.Logging.LogProviders.NLogLogProvider+NLogLogger.Log { - } {} ,  - || - {} {} Batch acquisition of 1 triggers 

05/01/2022 09:12:00.006 - DEBUG {4} - Quartz.Simpl.SimpleJobFactory.NewJob { - } {} ,  - || - {} {} Producing instance of Job 'MasterJobGroup.MasterJob', class=CU.Job.MasterJob 

05/01/2022 09:12:00.006 - DEBUG {4} - Quartz.Logging.LogProviders.NLogLogProvider+NLogLogger.Log { - } {} ,  - || - {} {} Batch acquisition of 0 triggers 

05/01/2022 09:12:00.006 - DEBUG {175} - Quartz.Core.JobRunShell.Run { - } {} ,  - || - {} {} Calling Execute on job MasterJobGroup.MasterJob 

05/01/2022 09:12:00.045 - DEBUG {176} - Quartz.Core.JobRunShell+<Run>d__10.MoveNext { - } {} ,  - || - {} {} Trigger instruction : NoInstruction 

05/01/2022 09:12:00.045 - DEBUG {4} - Quartz.Logging.LogProviders.NLogLogProvider+NLogLogger.Log { - } {} ,  - || - {} {} Batch acquisition of 0 triggers 

05/01/2022 09:12:29.960 - DEBUG {4} - Quartz.Logging.LogProviders.NLogLogProvider+NLogLogger.Log { - } {} ,  - || - {} {} Batch acquisition of 0 triggers 

05/01/2022 09:12:57.796 - DEBUG {4} - Quartz.Logging.LogProviders.NLogLogProvider+NLogLogger.Log { - } {} ,  - || - {} {} Batch acquisition of 1 triggers 

05/01/2022 09:13:00.006 - DEBUG {4} - Quartz.Simpl.SimpleJobFactory.NewJob { - } {} ,  - || - {} {} Producing instance of Job 'MasterJobGroup.MasterJob', class=CU.Job.MasterJob 

05/01/2022 09:13:00.006 - DEBUG {177} - Quartz.Core.JobRunShell.Run { - } {} ,  - || - {} {} Calling Execute on job MasterJobGroup.MasterJob 

05/01/2022 09:13:00.006 - DEBUG {4} - Quartz.Logging.LogProviders.NLogLogProvider+NLogLogger.Log { - } {} ,  - || - {} {} Batch acquisition of 0 triggers 

05/01/2022 09:13:00.049 - DEBUG {178} - Quartz.Core.JobRunShell+<Run>d__10.MoveNext { - } {} ,  - || - {} {} Trigger instruction : NoInstruction 

05/01/2022 09:13:00.049 - DEBUG {4} - Quartz.Logging.LogProviders.NLogLogProvider+NLogLogger.Log { - } {} ,  - || - {} {} Batch acquisition of 0 triggers 

05/01/2022 09:13:24.806 - DEBUG {4} - Quartz.Logging.LogProviders.NLogLogProvider+NLogLogger.Log { - } {} ,  - || - {} {} Batch acquisition of 0 triggers 

05/01/2022 09:13:52.192 - DEBUG {4} - Quartz.Logging.LogProviders.NLogLogProvider+NLogLogger.Log { - } {} ,  - || - {} {} Batch acquisition of 1 triggers 

05/01/2022 09:14:00.006 - DEBUG {4} - Quartz.Simpl.SimpleJobFactory.NewJob { - } {} ,  - || - {} {} Producing instance of Job 'MasterJobGroup.MasterJob', class=CU.Job.MasterJob 

05/01/2022 09:14:00.006 - DEBUG {4} - Quartz.Logging.LogProviders.NLogLogProvider+NLogLogger.Log { - } {} ,  - || - {} {} Batch acquisition of 0 triggers 

05/01/2022 09:14:00.006 - DEBUG {182} - Quartz.Core.JobRunShell.Run { - } {} ,  - || - {} {} Calling Execute on job MasterJobGroup.MasterJob 

05/01/2022 09:14:00.040 - DEBUG {184} - Quartz.Core.JobRunShell+<Run>d__10.MoveNext { - } {} ,  - || - {} {} Trigger instruction : NoInstruction 

05/01/2022 09:14:00.040 - DEBUG {4} - Quartz.Logging.LogProviders.NLogLogProvider+NLogLogger.Log { - } {} ,  - || - {} {} Batch acquisition of 0 triggers 

05/01/2022 09:14:23.265 - DEBUG {4} - Quartz.Logging.LogProviders.NLogLogProvider+NLogLogger.Log { - } {} ,  - || - {} {} Batch acquisition of 0 triggers 

05/01/2022 09:14:47.570 - DEBUG {4} - Quartz.Logging.LogProviders.NLogLogProvider+NLogLogger.Log { - } {} ,  - || - {} {} Batch acquisition of 1 triggers 

05/01/2022 09:15:00.012 - DEBUG {4} - Quartz.Simpl.SimpleJobFactory.NewJob { - } {} ,  - || - {} {} Producing instance of Job 'MasterJobGroup.MasterJob', class=CU.Job.MasterJob 

05/01/2022 09:15:00.020 - DEBUG {4} - Quartz.Logging.LogProviders.NLogLogProvider+NLogLogger.Log { - } {} ,  - || - {} {} Batch acquisition of 0 triggers 

05/01/2022 09:15:00.020 - DEBUG {186} - Quartz.Core.JobRunShell.Run { - } {} ,  - || - {} {} Calling Execute on job MasterJobGroup.MasterJob 

05/01/2022 09:15:00.078 - DEBUG {186} - Quartz.Core.JobRunShell+<Run>d__10.MoveNext { - } {} ,  - || - {} {} Trigger instruction : NoInstruction 

05/01/2022 09:15:00.078 - DEBUG {4} - Quartz.Logging.LogProviders.NLogLogProvider+NLogLogger.Log { - } {} ,  - || - {} {} Batch acquisition of 0 triggers 

05/01/2022 09:15:24.263 - DEBUG {4} - Quartz.Logging.LogProviders.NLogLogProvider+NLogLogger.Log { - } {} ,  - || - {} {} Batch acquisition of 0 triggers 

05/01/2022 09:15:52.945 - DEBUG {4} - Quartz.Logging.LogProviders.NLogLogProvider+NLogLogger.Log { - } {} ,  - || - {} {} Batch acquisition of 1 triggers 

05/01/2022 09:16:00.009 - DEBUG {4} - Quartz.Simpl.SimpleJobFactory.NewJob { - } {} ,  - || - {} {} Producing instance of Job 'MasterJobGroup.MasterJob', class=CU.Job.MasterJob 

05/01/2022 09:16:00.009 - DEBUG {4} - Quartz.Logging.LogProviders.NLogLogProvider+NLogLogger.Log { - } {} ,  - || - {} {} Batch acquisition of 0 triggers 

05/01/2022 09:16:00.009 - DEBUG {191} - Quartz.Core.JobRunShell.Run { - } {} ,  - || - {} {} Calling Execute on job MasterJobGroup.MasterJob 

05/01/2022 09:16:00.049 - DEBUG {192} - Quartz.Core.JobRunShell+<Run>d__10.MoveNext { - } {} ,  - || - {} {} Trigger instruction : NoInstruction 

05/01/2022 09:16:00.049 - DEBUG {4} - Quartz.Logging.LogProviders.NLogLogProvider+NLogLogger.Log { - } {} ,  - || - {} {} Batch acquisition of 0 triggers 

05/01/2022 09:16:27.424 - DEBUG {4} - Quartz.Logging.LogProviders.NLogLogProvider+NLogLogger.Log { - } {} ,  - || - {} {} Batch acquisition of 0 triggers 

05/01/2022 09:16:57.204 - DEBUG {4} - Quartz.Logging.LogProviders.NLogLogProvider+NLogLogger.Log { - } {} ,  - || - {} {} Batch acquisition of 1 triggers 

05/01/2022 09:17:00.003 - DEBUG {4} - Quartz.Simpl.SimpleJobFactory.NewJob { - } {} ,  - || - {} {} Producing instance of Job 'MasterJobGroup.MasterJob', class=CU.Job.MasterJob 

05/01/2022 09:17:00.003 - DEBUG {4} - Quartz.Logging.LogProviders.NLogLogProvider+NLogLogger.Log { - } {} ,  - || - {} {} Batch acquisition of 0 triggers 

05/01/2022 09:17:00.003 - DEBUG {193} - Quartz.Core.JobRunShell.Run { - } {} ,  - || - {} {} Calling Execute on job MasterJobGroup.MasterJob 

05/01/2022 09:17:00.039 - DEBUG {192} - Quartz.Core.JobRunShell+<Run>d__10.MoveNext { - } {} ,  - || - {} {} Trigger instruction : NoInstruction 

05/01/2022 09:17:00.039 - DEBUG {4} - Quartz.Logging.LogProviders.NLogLogProvider+NLogLogger.Log { - } {} ,  - || - {} {} Batch acquisition of 0 triggers 

05/01/2022 09:17:27.791 - DEBUG {4} - Quartz.Logging.LogProviders.NLogLogProvider+NLogLogger.Log { - } {} ,  - || - {} {} Batch acquisition of 0 triggers 

05/01/2022 09:17:54.969 - DEBUG {4} - Quartz.Logging.LogProviders.NLogLogProvider+NLogLogger.Log { - } {} ,  - || - {} {} Batch acquisition of 1 triggers 

05/01/2022 09:18:00.005 - DEBUG {4} - Quartz.Simpl.SimpleJobFactory.NewJob { - } {} ,  - || - {} {} Producing instance of Job 'MasterJobGroup.MasterJob', class=CU.Job.MasterJob 

05/01/2022 09:18:00.005 - DEBUG {190} - Quartz.Core.JobRunShell.Run { - } {} ,  - || - {} {} Calling Execute on job MasterJobGroup.MasterJob 

05/01/2022 09:18:00.005 - DEBUG {4} - Quartz.Logging.LogProviders.NLogLogProvider+NLogLogger.Log { - } {} ,  - || - {} {} Batch acquisition of 0 triggers 

05/01/2022 09:18:00.030 - DEBUG {190} - Quartz.Core.JobRunShell+<Run>d__10.MoveNext { - } {} ,  - || - {} {} Trigger instruction : NoInstruction 

05/01/2022 09:18:00.030 - DEBUG {4} - Quartz.Logging.LogProviders.NLogLogProvider+NLogLogger.Log { - } {} ,  - || - {} {} Batch acquisition of 0 triggers 

05/01/2022 09:18:26.020 - DEBUG {4} - Quartz.Logging.LogProviders.NLogLogProvider+NLogLogger.Log { - } {} ,  - || - {} {} Batch acquisition of 0 triggers 

05/01/2022 09:18:52.222 - DEBUG {4} - Quartz.Logging.LogProviders.NLogLogProvider+NLogLogger.Log { - } {} ,  - || - {} {} Batch acquisition of 1 triggers 

05/01/2022 09:19:00.012 - DEBUG {4} - Quartz.Simpl.SimpleJobFactory.NewJob { - } {} ,  - || - {} {} Producing instance of Job 'MasterJobGroup.MasterJob', class=CU.Job.MasterJob 

05/01/2022 09:19:00.012 - DEBUG {4} - Quartz.Logging.LogProviders.NLogLogProvider+NLogLogger.Log { - } {} ,  - || - {} {} Batch acquisition of 0 triggers 

05/01/2022 09:19:00.012 - DEBUG {185} - Quartz.Core.JobRunShell.Run { - } {} ,  - || - {} {} Calling Execute on job MasterJobGroup.MasterJob 

05/01/2022 09:19:00.045 - DEBUG {184} - Quartz.Core.JobRunShell+<Run>d__10.MoveNext { - } {} ,  - || - {} {} Trigger instruction : NoInstruction 

05/01/2022 09:19:00.045 - DEBUG {4} - Quartz.Logging.LogProviders.NLogLogProvider+NLogLogger.Log { - } {} ,  - || - {} {} Batch acquisition of 0 triggers 

05/01/2022 09:19:26.059 - DEBUG {4} - Quartz.Logging.LogProviders.NLogLogProvider+NLogLogger.Log { - } {} ,  - || - {} {} Batch acquisition of 0 triggers 

05/01/2022 09:19:52.282 - DEBUG {4} - Quartz.Logging.LogProviders.NLogLogProvider+NLogLogger.Log { - } {} ,  - || - {} {} Batch acquisition of 1 triggers 

05/01/2022 09:20:00.001 - DEBUG {4} - Quartz.Simpl.SimpleJobFactory.NewJob { - } {} ,  - || - {} {} Producing instance of Job 'MasterJobGroup.MasterJob', class=CU.Job.MasterJob 

05/01/2022 09:20:00.001 - DEBUG {183} - Quartz.Core.JobRunShell.Run { - } {} ,  - || - {} {} Calling Execute on job MasterJobGroup.MasterJob 

05/01/2022 09:20:00.001 - DEBUG {4} - Quartz.Logging.LogProviders.NLogLogProvider+NLogLogger.Log { - } {} ,  - || - {} {} Batch acquisition of 0 triggers 

05/01/2022 09:20:00.032 - DEBUG {181} - Quartz.Core.JobRunShell+<Run>d__10.MoveNext { - } {} ,  - || - {} {} Trigger instruction : NoInstruction 

05/01/2022 09:20:00.032 - DEBUG {4} - Quartz.Logging.LogProviders.NLogLogProvider+NLogLogger.Log { - } {} ,  - || - {} {} Batch acquisition of 0 triggers 

05/01/2022 09:20:23.801 - DEBUG {4} - Quartz.Logging.LogProviders.NLogLogProvider+NLogLogger.Log { - } {} ,  - || - {} {} Batch acquisition of 0 triggers 

05/01/2022 09:20:47.136 - DEBUG {4} - Quartz.Logging.LogProviders.NLogLogProvider+NLogLogger.Log { - } {} ,  - || - {} {} Batch acquisition of 1 triggers 

05/01/2022 09:21:00.004 - DEBUG {4} - Quartz.Simpl.SimpleJobFactory.NewJob { - } {} ,  - || - {} {} Producing instance of Job 'MasterJobGroup.MasterJob', class=CU.Job.MasterJob 

05/01/2022 09:21:00.004 - DEBUG {4} - Quartz.Logging.LogProviders.NLogLogProvider+NLogLogger.Log { - } {} ,  - || - {} {} Batch acquisition of 0 triggers 

05/01/2022 09:21:00.004 - DEBUG {178} - Quartz.Core.JobRunShell.Run { - } {} ,  - || - {} {} Calling Execute on job MasterJobGroup.MasterJob 

05/01/2022 09:21:00.033 - DEBUG {177} - Quartz.Core.JobRunShell+<Run>d__10.MoveNext { - } {} ,  - || - {} {} Trigger instruction : NoInstruction 

05/01/2022 09:21:00.033 - DEBUG {4} - Quartz.Logging.LogProviders.NLogLogProvider+NLogLogger.Log { - } {} ,  - || - {} {} Batch acquisition of 0 triggers 

05/01/2022 09:21:29.218 - DEBUG {4} - Quartz.Logging.LogProviders.NLogLogProvider+NLogLogger.Log { - } {} ,  - || - {} {} Batch acquisition of 0 triggers 

05/01/2022 09:21:53.740 - DEBUG {4} - Quartz.Logging.LogProviders.NLogLogProvider+NLogLogger.Log { - } {} ,  - || - {} {} Batch acquisition of 1 triggers 

05/01/2022 09:22:00.012 - DEBUG {4} - Quartz.Simpl.SimpleJobFactory.NewJob { - } {} ,  - || - {} {} Producing instance of Job 'MasterJobGroup.MasterJob', class=CU.Job.MasterJob 

05/01/2022 09:22:00.016 - DEBUG {4} - Quartz.Logging.LogProviders.NLogLogProvider+NLogLogger.Log { - } {} ,  - || - {} {} Batch acquisition of 0 triggers 

05/01/2022 09:22:00.016 - DEBUG {175} - Quartz.Core.JobRunShell.Run { - } {} ,  - || - {} {} Calling Execute on job MasterJobGroup.MasterJob 

05/01/2022 09:22:00.054 - DEBUG {174} - Quartz.Core.JobRunShell+<Run>d__10.MoveNext { - } {} ,  - || - {} {} Trigger instruction : NoInstruction 

05/01/2022 09:22:00.054 - DEBUG {4} - Quartz.Logging.LogProviders.NLogLogProvider+NLogLogger.Log { - } {} ,  - || - {} {} Batch acquisition of 0 triggers 

05/01/2022 09:22:23.180 - DEBUG {4} - Quartz.Logging.LogProviders.NLogLogProvider+NLogLogger.Log { - } {} ,  - || - {} {} Batch acquisition of 0 triggers 

05/01/2022 09:22:50.375 - DEBUG {4} - Quartz.Logging.LogProviders.NLogLogProvider+NLogLogger.Log { - } {} ,  - || - {} {} Batch acquisition of 1 triggers 

05/01/2022 09:23:00.000 - DEBUG {4} - Quartz.Simpl.SimpleJobFactory.NewJob { - } {} ,  - || - {} {} Producing instance of Job 'MasterJobGroup.MasterJob', class=CU.Job.MasterJob 

05/01/2022 09:23:00.000 - DEBUG {4} - Quartz.Logging.LogProviders.NLogLogProvider+NLogLogger.Log { - } {} ,  - || - {} {} Batch acquisition of 0 triggers 

05/01/2022 09:23:00.000 - DEBUG {173} - Quartz.Core.JobRunShell.Run { - } {} ,  - || - {} {} Calling Execute on job MasterJobGroup.MasterJob 

05/01/2022 09:23:00.043 - DEBUG {171} - Quartz.Core.JobRunShell+<Run>d__10.MoveNext { - } {} ,  - || - {} {} Trigger instruction : NoInstruction 

05/01/2022 09:23:00.043 - DEBUG {4} - Quartz.Logging.LogProviders.NLogLogProvider+NLogLogger.Log { - } {} ,  - || - {} {} Batch acquisition of 0 triggers 

05/01/2022 09:23:27.412 - DEBUG {4} - Quartz.Logging.LogProviders.NLogLogProvider+NLogLogger.Log { - } {} ,  - || - {} {} Batch acquisition of 0 triggers 

05/01/2022 09:23:50.708 - DEBUG {4} - Quartz.Logging.LogProviders.NLogLogProvider+NLogLogger.Log { - } {} ,  - || - {} {} Batch acquisition of 1 triggers 

05/01/2022 09:24:00.011 - DEBUG {4} - Quartz.Simpl.SimpleJobFactory.NewJob { - } {} ,  - || - {} {} Producing instance of Job 'MasterJobGroup.MasterJob', class=CU.Job.MasterJob 

05/01/2022 09:24:00.011 - DEBUG {170} - Quartz.Core.JobRunShell.Run { - } {} ,  - || - {} {} Calling Execute on job MasterJobGroup.MasterJob 

05/01/2022 09:24:00.011 - DEBUG {4} - Quartz.Logging.LogProviders.NLogLogProvider+NLogLogger.Log { - } {} ,  - || - {} {} Batch acquisition of 0 triggers 

05/01/2022 09:24:00.038 - DEBUG {168} - Quartz.Core.JobRunShell+<Run>d__10.MoveNext { - } {} ,  - || - {} {} Trigger instruction : NoInstruction 

05/01/2022 09:24:00.038 - DEBUG {4} - Quartz.Logging.LogProviders.NLogLogProvider+NLogLogger.Log { - } {} ,  - || - {} {} Batch acquisition of 0 triggers 

05/01/2022 09:24:26.653 - DEBUG {4} - Quartz.Logging.LogProviders.NLogLogProvider+NLogLogger.Log { - } {} ,  - || - {} {} Batch acquisition of 0 triggers 

05/01/2022 09:24:55.312 - DEBUG {4} - Quartz.Logging.LogProviders.NLogLogProvider+NLogLogger.Log { - } {} ,  - || - {} {} Batch acquisition of 1 triggers 

05/01/2022 09:25:00.015 - DEBUG {4} - Quartz.Simpl.SimpleJobFactory.NewJob { - } {} ,  - || - {} {} Producing instance of Job 'MasterJobGroup.MasterJob', class=CU.Job.MasterJob 

05/01/2022 09:25:00.015 - DEBUG {167} - Quartz.Core.JobRunShell.Run { - } {} ,  - || - {} {} Calling Execute on job MasterJobGroup.MasterJob 

05/01/2022 09:25:00.015 - DEBUG {4} - Quartz.Logging.LogProviders.NLogLogProvider+NLogLogger.Log { - } {} ,  - || - {} {} Batch acquisition of 0 triggers 

05/01/2022 09:25:00.052 - DEBUG {167} - Quartz.Core.JobRunShell+<Run>d__10.MoveNext { - } {} ,  - || - {} {} Trigger instruction : NoInstruction 

05/01/2022 09:25:00.052 - DEBUG {4} - Quartz.Logging.LogProviders.NLogLogProvider+NLogLogger.Log { - } {} ,  - || - {} {} Batch acquisition of 0 triggers 

05/01/2022 09:25:28.825 - DEBUG {4} - Quartz.Logging.LogProviders.NLogLogProvider+NLogLogger.Log { - } {} ,  - || - {} {} Batch acquisition of 0 triggers 

05/01/2022 09:25:55.835 - DEBUG {4} - Quartz.Logging.LogProviders.NLogLogProvider+NLogLogger.Log { - } {} ,  - || - {} {} Batch acquisition of 1 triggers 

05/01/2022 09:26:00.004 - DEBUG {4} - Quartz.Simpl.SimpleJobFactory.NewJob { - } {} ,  - || - {} {} Producing instance of Job 'MasterJobGroup.MasterJob', class=CU.Job.MasterJob 

05/01/2022 09:26:00.004 - DEBUG {163} - Quartz.Core.JobRunShell.Run { - } {} ,  - || - {} {} Calling Execute on job MasterJobGroup.MasterJob 

05/01/2022 09:26:00.004 - DEBUG {4} - Quartz.Logging.LogProviders.NLogLogProvider+NLogLogger.Log { - } {} ,  - || - {} {} Batch acquisition of 0 triggers 

05/01/2022 09:26:00.049 - DEBUG {163} - Quartz.Core.JobRunShell+<Run>d__10.MoveNext { - } {} ,  - || - {} {} Trigger instruction : NoInstruction 

05/01/2022 09:26:00.049 - DEBUG {4} - Quartz.Logging.LogProviders.NLogLogProvider+NLogLogger.Log { - } {} ,  - || - {} {} Batch acquisition of 0 triggers 

05/01/2022 09:26:25.263 - DEBUG {4} - Quartz.Logging.LogProviders.NLogLogProvider+NLogLogger.Log { - } {} ,  - || - {} {} Batch acquisition of 0 triggers 

05/01/2022 09:26:53.335 - DEBUG {4} - Quartz.Logging.LogProviders.NLogLogProvider+NLogLogger.Log { - } {} ,  - || - {} {} Batch acquisition of 1 triggers 

05/01/2022 09:27:00.001 - DEBUG {4} - Quartz.Simpl.SimpleJobFactory.NewJob { - } {} ,  - || - {} {} Producing instance of Job 'MasterJobGroup.MasterJob', class=CU.Job.MasterJob 

05/01/2022 09:27:00.001 - DEBUG {160} - Quartz.Core.JobRunShell.Run { - } {} ,  - || - {} {} Calling Execute on job MasterJobGroup.MasterJob 

05/01/2022 09:27:00.001 - DEBUG {4} - Quartz.Logging.LogProviders.NLogLogProvider+NLogLogger.Log { - } {} ,  - || - {} {} Batch acquisition of 0 triggers 

05/01/2022 09:27:00.063 - DEBUG {159} - Quartz.Core.JobRunShell+<Run>d__10.MoveNext { - } {} ,  - || - {} {} Trigger instruction : NoInstruction 

05/01/2022 09:27:00.063 - DEBUG {4} - Quartz.Logging.LogProviders.NLogLogProvider+NLogLogger.Log { - } {} ,  - || - {} {} Batch acquisition of 0 triggers 

05/01/2022 09:27:26.743 - DEBUG {4} - Quartz.Logging.LogProviders.NLogLogProvider+NLogLogger.Log { - } {} ,  - || - {} {} Batch acquisition of 0 triggers 

05/01/2022 09:27:50.561 - DEBUG {4} - Quartz.Logging.LogProviders.NLogLogProvider+NLogLogger.Log { - } {} ,  - || - {} {} Batch acquisition of 1 triggers 

05/01/2022 09:28:00.010 - DEBUG {4} - Quartz.Simpl.SimpleJobFactory.NewJob { - } {} ,  - || - {} {} Producing instance of Job 'MasterJobGroup.MasterJob', class=CU.Job.MasterJob 

05/01/2022 09:28:00.010 - DEBUG {156} - Quartz.Core.JobRunShell.Run { - } {} ,  - || - {} {} Calling Execute on job MasterJobGroup.MasterJob 

05/01/2022 09:28:00.010 - DEBUG {4} - Quartz.Logging.LogProviders.NLogLogProvider+NLogLogger.Log { - } {} ,  - || - {} {} Batch acquisition of 0 triggers 

05/01/2022 09:28:00.041 - DEBUG {152} - Quartz.Core.JobRunShell+<Run>d__10.MoveNext { - } {} ,  - || - {} {} Trigger instruction : NoInstruction 

05/01/2022 09:28:00.041 - DEBUG {4} - Quartz.Logging.LogProviders.NLogLogProvider+NLogLogger.Log { - } {} ,  - || - {} {} Batch acquisition of 0 triggers 

05/01/2022 09:28:25.310 - DEBUG {4} - Quartz.Logging.LogProviders.NLogLogProvider+NLogLogger.Log { - } {} ,  - || - {} {} Batch acquisition of 0 triggers 

05/01/2022 09:28:55.276 - DEBUG {4} - Quartz.Logging.LogProviders.NLogLogProvider+NLogLogger.Log { - } {} ,  - || - {} {} Batch acquisition of 1 triggers 

05/01/2022 09:29:00.007 - DEBUG {4} - Quartz.Simpl.SimpleJobFactory.NewJob { - } {} ,  - || - {} {} Producing instance of Job 'MasterJobGroup.MasterJob', class=CU.Job.MasterJob 

05/01/2022 09:29:00.007 - DEBUG {148} - Quartz.Core.JobRunShell.Run { - } {} ,  - || - {} {} Calling Execute on job MasterJobGroup.MasterJob 

05/01/2022 09:29:00.007 - DEBUG {4} - Quartz.Logging.LogProviders.NLogLogProvider+NLogLogger.Log { - } {} ,  - || - {} {} Batch acquisition of 0 triggers 

05/01/2022 09:29:00.048 - DEBUG {155} - Quartz.Core.JobRunShell+<Run>d__10.MoveNext { - } {} ,  - || - {} {} Trigger instruction : NoInstruction 

05/01/2022 09:29:00.048 - DEBUG {4} - Quartz.Logging.LogProviders.NLogLogProvider+NLogLogger.Log { - } {} ,  - || - {} {} Batch acquisition of 0 triggers 

05/01/2022 09:29:27.265 - DEBUG {4} - Quartz.Logging.LogProviders.NLogLogProvider+NLogLogger.Log { - } {} ,  - || - {} {} Batch acquisition of 0 triggers 

05/01/2022 09:29:54.294 - DEBUG {4} - Quartz.Logging.LogProviders.NLogLogProvider+NLogLogger.Log { - } {} ,  - || - {} {} Batch acquisition of 1 triggers 

05/01/2022 09:30:00.000 - DEBUG {4} - Quartz.Simpl.SimpleJobFactory.NewJob { - } {} ,  - || - {} {} Producing instance of Job 'MasterJobGroup.MasterJob', class=CU.Job.MasterJob 

05/01/2022 09:30:00.000 - DEBUG {4} - Quartz.Logging.LogProviders.NLogLogProvider+NLogLogger.Log { - } {} ,  - || - {} {} Batch acquisition of 0 triggers 

05/01/2022 09:30:00.000 - DEBUG {150} - Quartz.Core.JobRunShell.Run { - } {} ,  - || - {} {} Calling Execute on job MasterJobGroup.MasterJob 

05/01/2022 09:30:00.031 - DEBUG {151} - Quartz.Core.JobRunShell+<Run>d__10.MoveNext { - } {} ,  - || - {} {} Trigger instruction : NoInstruction 

05/01/2022 09:30:00.031 - DEBUG {4} - Quartz.Logging.LogProviders.NLogLogProvider+NLogLogger.Log { - } {} ,  - || - {} {} Batch acquisition of 0 triggers 

05/01/2022 09:30:23.256 - DEBUG {4} - Quartz.Logging.LogProviders.NLogLogProvider+NLogLogger.Log { - } {} ,  - || - {} {} Batch acquisition of 0 triggers 

05/01/2022 09:30:51.862 - DEBUG {4} - Quartz.Logging.LogProviders.NLogLogProvider+NLogLogger.Log { - } {} ,  - || - {} {} Batch acquisition of 1 triggers 

05/01/2022 09:31:00.001 - DEBUG {4} - Quartz.Simpl.SimpleJobFactory.NewJob { - } {} ,  - || - {} {} Producing instance of Job 'MasterJobGroup.MasterJob', class=CU.Job.MasterJob 

05/01/2022 09:31:00.001 - DEBUG {4} - Quartz.Logging.LogProviders.NLogLogProvider+NLogLogger.Log { - } {} ,  - || - {} {} Batch acquisition of 0 triggers 

05/01/2022 09:31:00.001 - DEBUG {144} - Quartz.Core.JobRunShell.Run { - } {} ,  - || - {} {} Calling Execute on job MasterJobGroup.MasterJob 

05/01/2022 09:31:00.038 - DEBUG {143} - Quartz.Core.JobRunShell+<Run>d__10.MoveNext { - } {} ,  - || - {} {} Trigger instruction : NoInstruction 

05/01/2022 09:31:00.038 - DEBUG {4} - Quartz.Logging.LogProviders.NLogLogProvider+NLogLogger.Log { - } {} ,  - || - {} {} Batch acquisition of 0 triggers 

05/01/2022 09:31:25.569 - DEBUG {4} - Quartz.Logging.LogProviders.NLogLogProvider+NLogLogger.Log { - } {} ,  - || - {} {} Batch acquisition of 0 triggers 

05/01/2022 09:31:48.955 - DEBUG {4} - Quartz.Logging.LogProviders.NLogLogProvider+NLogLogger.Log { - } {} ,  - || - {} {} Batch acquisition of 1 triggers 

05/01/2022 09:32:00.014 - DEBUG {4} - Quartz.Simpl.SimpleJobFactory.NewJob { - } {} ,  - || - {} {} Producing instance of Job 'MasterJobGroup.MasterJob', class=CU.Job.MasterJob 

05/01/2022 09:32:00.014 - DEBUG {4} - Quartz.Logging.LogProviders.NLogLogProvider+NLogLogger.Log { - } {} ,  - || - {} {} Batch acquisition of 0 triggers 

05/01/2022 09:32:00.014 - DEBUG {142} - Quartz.Core.JobRunShell.Run { - } {} ,  - || - {} {} Calling Execute on job MasterJobGroup.MasterJob 

05/01/2022 09:32:00.045 - DEBUG {140} - Quartz.Core.JobRunShell+<Run>d__10.MoveNext { - } {} ,  - || - {} {} Trigger instruction : NoInstruction 

05/01/2022 09:32:00.045 - DEBUG {4} - Quartz.Logging.LogProviders.NLogLogProvider+NLogLogger.Log { - } {} ,  - || - {} {} Batch acquisition of 0 triggers 

05/01/2022 09:32:28.576 - DEBUG {4} - Quartz.Logging.LogProviders.NLogLogProvider+NLogLogger.Log { - } {} ,  - || - {} {} Batch acquisition of 0 triggers 

05/01/2022 09:32:53.390 - DEBUG {4} - Quartz.Logging.LogProviders.NLogLogProvider+NLogLogger.Log { - } {} ,  - || - {} {} Batch acquisition of 1 triggers 

05/01/2022 09:33:00.012 - DEBUG {4} - Quartz.Simpl.SimpleJobFactory.NewJob { - } {} ,  - || - {} {} Producing instance of Job 'MasterJobGroup.MasterJob', class=CU.Job.MasterJob 

05/01/2022 09:33:00.014 - DEBUG {4} - Quartz.Logging.LogProviders.NLogLogProvider+NLogLogger.Log { - } {} ,  - || - {} {} Batch acquisition of 0 triggers 

05/01/2022 09:33:00.014 - DEBUG {139} - Quartz.Core.JobRunShell.Run { - } {} ,  - || - {} {} Calling Execute on job MasterJobGroup.MasterJob 

05/01/2022 09:33:00.057 - DEBUG {137} - Quartz.Core.JobRunShell+<Run>d__10.MoveNext { - } {} ,  - || - {} {} Trigger instruction : NoInstruction 

05/01/2022 09:33:00.057 - DEBUG {4} - Quartz.Logging.LogProviders.NLogLogProvider+NLogLogger.Log { - } {} ,  - || - {} {} Batch acquisition of 0 triggers 

05/01/2022 09:33:26.683 - DEBUG {4} - Quartz.Logging.LogProviders.NLogLogProvider+NLogLogger.Log { - } {} ,  - || - {} {} Batch acquisition of 0 triggers 

05/01/2022 09:33:55.345 - DEBUG {4} - Quartz.Logging.LogProviders.NLogLogProvider+NLogLogger.Log { - } {} ,  - || - {} {} Batch acquisition of 1 triggers 

05/01/2022 09:34:00.013 - DEBUG {4} - Quartz.Simpl.SimpleJobFactory.NewJob { - } {} ,  - || - {} {} Producing instance of Job 'MasterJobGroup.MasterJob', class=CU.Job.MasterJob 

05/01/2022 09:34:00.013 - DEBUG {4} - Quartz.Logging.LogProviders.NLogLogProvider+NLogLogger.Log { - } {} ,  - || - {} {} Batch acquisition of 0 triggers 

05/01/2022 09:34:00.049 - DEBUG {134} - Quartz.Core.JobRunShell.Run { - } {} ,  - || - {} {} Calling Execute on job MasterJobGroup.MasterJob 

05/01/2022 09:34:00.076 - DEBUG {135} - Quartz.Core.JobRunShell+<Run>d__10.MoveNext { - } {} ,  - || - {} {} Trigger instruction : NoInstruction 

05/01/2022 09:34:00.076 - DEBUG {4} - Quartz.Logging.LogProviders.NLogLogProvider+NLogLogger.Log { - } {} ,  - || - {} {} Batch acquisition of 0 triggers 

05/01/2022 09:34:28.670 - DEBUG {4} - Quartz.Logging.LogProviders.NLogLogProvider+NLogLogger.Log { - } {} ,  - || - {} {} Batch acquisition of 0 triggers 

05/01/2022 09:34:58.436 - DEBUG {4} - Quartz.Logging.LogProviders.NLogLogProvider+NLogLogger.Log { - } {} ,  - || - {} {} Batch acquisition of 1 triggers 

05/01/2022 09:35:00.011 - DEBUG {4} - Quartz.Simpl.SimpleJobFactory.NewJob { - } {} ,  - || - {} {} Producing instance of Job 'MasterJobGroup.MasterJob', class=CU.Job.MasterJob 

05/01/2022 09:35:00.011 - DEBUG {132} - Quartz.Core.JobRunShell.Run { - } {} ,  - || - {} {} Calling Execute on job MasterJobGroup.MasterJob 

05/01/2022 09:35:00.011 - DEBUG {4} - Quartz.Logging.LogProviders.NLogLogProvider+NLogLogger.Log { - } {} ,  - || - {} {} Batch acquisition of 0 triggers 

05/01/2022 09:35:00.054 - DEBUG {132} - Quartz.Core.JobRunShell+<Run>d__10.MoveNext { - } {} ,  - || - {} {} Trigger instruction : NoInstruction 

05/01/2022 09:35:00.054 - DEBUG {4} - Quartz.Logging.LogProviders.NLogLogProvider+NLogLogger.Log { - } {} ,  - || - {} {} Batch acquisition of 0 triggers 

05/01/2022 09:35:25.120 - DEBUG {4} - Quartz.Logging.LogProviders.NLogLogProvider+NLogLogger.Log { - } {} ,  - || - {} {} Batch acquisition of 0 triggers 

05/01/2022 09:35:52.384 - DEBUG {4} - Quartz.Logging.LogProviders.NLogLogProvider+NLogLogger.Log { - } {} ,  - || - {} {} Batch acquisition of 1 triggers 

05/01/2022 09:36:00.010 - DEBUG {4} - Quartz.Simpl.SimpleJobFactory.NewJob { - } {} ,  - || - {} {} Producing instance of Job 'MasterJobGroup.MasterJob', class=CU.Job.MasterJob 

05/01/2022 09:36:00.010 - DEBUG {129} - Quartz.Core.JobRunShell.Run { - } {} ,  - || - {} {} Calling Execute on job MasterJobGroup.MasterJob 

05/01/2022 09:36:00.010 - DEBUG {4} - Quartz.Logging.LogProviders.NLogLogProvider+NLogLogger.Log { - } {} ,  - || - {} {} Batch acquisition of 0 triggers 

05/01/2022 09:36:00.038 - DEBUG {130} - Quartz.Core.JobRunShell+<Run>d__10.MoveNext { - } {} ,  - || - {} {} Trigger instruction : NoInstruction 

05/01/2022 09:36:00.038 - DEBUG {4} - Quartz.Logging.LogProviders.NLogLogProvider+NLogLogger.Log { - } {} ,  - || - {} {} Batch acquisition of 0 triggers 

05/01/2022 09:36:29.897 - DEBUG {4} - Quartz.Logging.LogProviders.NLogLogProvider+NLogLogger.Log { - } {} ,  - || - {} {} Batch acquisition of 0 triggers 

05/01/2022 09:36:53.512 - DEBUG {4} - Quartz.Logging.LogProviders.NLogLogProvider+NLogLogger.Log { - } {} ,  - || - {} {} Batch acquisition of 1 triggers 

05/01/2022 09:37:00.004 - DEBUG {4} - Quartz.Simpl.SimpleJobFactory.NewJob { - } {} ,  - || - {} {} Producing instance of Job 'MasterJobGroup.MasterJob', class=CU.Job.MasterJob 

05/01/2022 09:37:00.006 - DEBUG {129} - Quartz.Core.JobRunShell.Run { - } {} ,  - || - {} {} Calling Execute on job MasterJobGroup.MasterJob 

05/01/2022 09:37:00.006 - DEBUG {4} - Quartz.Logging.LogProviders.NLogLogProvider+NLogLogger.Log { - } {} ,  - || - {} {} Batch acquisition of 0 triggers 

05/01/2022 09:37:00.058 - DEBUG {129} - Quartz.Core.JobRunShell+<Run>d__10.MoveNext { - } {} ,  - || - {} {} Trigger instruction : NoInstruction 

05/01/2022 09:37:00.058 - DEBUG {4} - Quartz.Logging.LogProviders.NLogLogProvider+NLogLogger.Log { - } {} ,  - || - {} {} Batch acquisition of 0 triggers 

05/01/2022 09:37:25.865 - DEBUG {4} - Quartz.Logging.LogProviders.NLogLogProvider+NLogLogger.Log { - } {} ,  - || - {} {} Batch acquisition of 0 triggers 

05/01/2022 09:37:49.985 - DEBUG {4} - Quartz.Logging.LogProviders.NLogLogProvider+NLogLogger.Log { - } {} ,  - || - {} {} Batch acquisition of 1 triggers 

05/01/2022 09:38:00.004 - DEBUG {4} - Quartz.Simpl.SimpleJobFactory.NewJob { - } {} ,  - || - {} {} Producing instance of Job 'MasterJobGroup.MasterJob', class=CU.Job.MasterJob 

05/01/2022 09:38:00.004 - DEBUG {124} - Quartz.Core.JobRunShell.Run { - } {} ,  - || - {} {} Calling Execute on job MasterJobGroup.MasterJob 

05/01/2022 09:38:00.004 - DEBUG {4} - Quartz.Logging.LogProviders.NLogLogProvider+NLogLogger.Log { - } {} ,  - || - {} {} Batch acquisition of 0 triggers 

05/01/2022 09:38:00.046 - DEBUG {123} - Quartz.Core.JobRunShell+<Run>d__10.MoveNext { - } {} ,  - || - {} {} Trigger instruction : NoInstruction 

05/01/2022 09:38:00.046 - DEBUG {4} - Quartz.Logging.LogProviders.NLogLogProvider+NLogLogger.Log { - } {} ,  - || - {} {} Batch acquisition of 0 triggers 

05/01/2022 09:38:24.831 - DEBUG {4} - Quartz.Logging.LogProviders.NLogLogProvider+NLogLogger.Log { - } {} ,  - || - {} {} Batch acquisition of 0 triggers 

05/01/2022 09:38:53.798 - DEBUG {4} - Quartz.Logging.LogProviders.NLogLogProvider+NLogLogger.Log { - } {} ,  - || - {} {} Batch acquisition of 1 triggers 

05/01/2022 09:39:00.001 - DEBUG {4} - Quartz.Simpl.SimpleJobFactory.NewJob { - } {} ,  - || - {} {} Producing instance of Job 'MasterJobGroup.MasterJob', class=CU.Job.MasterJob 

05/01/2022 09:39:00.001 - DEBUG {122} - Quartz.Core.JobRunShell.Run { - } {} ,  - || - {} {} Calling Execute on job MasterJobGroup.MasterJob 

05/01/2022 09:39:00.001 - DEBUG {4} - Quartz.Logging.LogProviders.NLogLogProvider+NLogLogger.Log { - } {} ,  - || - {} {} Batch acquisition of 0 triggers 

05/01/2022 09:39:00.038 - DEBUG {122} - Quartz.Core.JobRunShell+<Run>d__10.MoveNext { - } {} ,  - || - {} {} Trigger instruction : NoInstruction 

05/01/2022 09:39:00.038 - DEBUG {4} - Quartz.Logging.LogProviders.NLogLogProvider+NLogLogger.Log { - } {} ,  - || - {} {} Batch acquisition of 0 triggers 

05/01/2022 09:39:25.861 - DEBUG {4} - Quartz.Logging.LogProviders.NLogLogProvider+NLogLogger.Log { - } {} ,  - || - {} {} Batch acquisition of 0 triggers 

05/01/2022 09:39:55.816 - DEBUG {4} - Quartz.Logging.LogProviders.NLogLogProvider+NLogLogger.Log { - } {} ,  - || - {} {} Batch acquisition of 1 triggers 

05/01/2022 09:40:00.001 - DEBUG {4} - Quartz.Simpl.SimpleJobFactory.NewJob { - } {} ,  - || - {} {} Producing instance of Job 'MasterJobGroup.MasterJob', class=CU.Job.MasterJob 

05/01/2022 09:40:00.001 - DEBUG {117} - Quartz.Core.JobRunShell.Run { - } {} ,  - || - {} {} Calling Execute on job MasterJobGroup.MasterJob 

05/01/2022 09:40:00.001 - DEBUG {4} - Quartz.Logging.LogProviders.NLogLogProvider+NLogLogger.Log { - } {} ,  - || - {} {} Batch acquisition of 0 triggers 

05/01/2022 09:40:00.031 - DEBUG {117} - Quartz.Core.JobRunShell+<Run>d__10.MoveNext { - } {} ,  - || - {} {} Trigger instruction : NoInstruction 

05/01/2022 09:40:00.031 - DEBUG {4} - Quartz.Logging.LogProviders.NLogLogProvider+NLogLogger.Log { - } {} ,  - || - {} {} Batch acquisition of 0 triggers 

05/01/2022 09:40:28.376 - DEBUG {4} - Quartz.Logging.LogProviders.NLogLogProvider+NLogLogger.Log { - } {} ,  - || - {} {} Batch acquisition of 0 triggers 

05/01/2022 09:40:56.081 - DEBUG {4} - Quartz.Logging.LogProviders.NLogLogProvider+NLogLogger.Log { - } {} ,  - || - {} {} Batch acquisition of 1 triggers 

05/01/2022 09:41:00.012 - DEBUG {4} - Quartz.Simpl.SimpleJobFactory.NewJob { - } {} ,  - || - {} {} Producing instance of Job 'MasterJobGroup.MasterJob', class=CU.Job.MasterJob 

05/01/2022 09:41:00.012 - DEBUG {115} - Quartz.Core.JobRunShell.Run { - } {} ,  - || - {} {} Calling Execute on job MasterJobGroup.MasterJob 

05/01/2022 09:41:00.012 - DEBUG {4} - Quartz.Logging.LogProviders.NLogLogProvider+NLogLogger.Log { - } {} ,  - || - {} {} Batch acquisition of 0 triggers 

05/01/2022 09:41:00.039 - DEBUG {114} - Quartz.Core.JobRunShell+<Run>d__10.MoveNext { - } {} ,  - || - {} {} Trigger instruction : NoInstruction 

05/01/2022 09:41:00.039 - DEBUG {4} - Quartz.Logging.LogProviders.NLogLogProvider+NLogLogger.Log { - } {} ,  - || - {} {} Batch acquisition of 0 triggers 

05/01/2022 09:41:28.319 - DEBUG {4} - Quartz.Logging.LogProviders.NLogLogProvider+NLogLogger.Log { - } {} ,  - || - {} {} Batch acquisition of 0 triggers 

05/01/2022 09:41:54.089 - DEBUG {4} - Quartz.Logging.LogProviders.NLogLogProvider+NLogLogger.Log { - } {} ,  - || - {} {} Batch acquisition of 1 triggers 

05/01/2022 09:42:00.004 - DEBUG {4} - Quartz.Simpl.SimpleJobFactory.NewJob { - } {} ,  - || - {} {} Producing instance of Job 'MasterJobGroup.MasterJob', class=CU.Job.MasterJob 

05/01/2022 09:42:00.004 - DEBUG {112} - Quartz.Core.JobRunShell.Run { - } {} ,  - || - {} {} Calling Execute on job MasterJobGroup.MasterJob 

05/01/2022 09:42:00.004 - DEBUG {4} - Quartz.Logging.LogProviders.NLogLogProvider+NLogLogger.Log { - } {} ,  - || - {} {} Batch acquisition of 0 triggers 

05/01/2022 09:42:00.045 - DEBUG {112} - Quartz.Core.JobRunShell+<Run>d__10.MoveNext { - } {} ,  - || - {} {} Trigger instruction : NoInstruction 

05/01/2022 09:42:00.045 - DEBUG {4} - Quartz.Logging.LogProviders.NLogLogProvider+NLogLogger.Log { - } {} ,  - || - {} {} Batch acquisition of 0 triggers 

05/01/2022 09:42:29.041 - DEBUG {4} - Quartz.Logging.LogProviders.NLogLogProvider+NLogLogger.Log { - } {} ,  - || - {} {} Batch acquisition of 0 triggers 

05/01/2022 09:42:52.804 - DEBUG {4} - Quartz.Logging.LogProviders.NLogLogProvider+NLogLogger.Log { - } {} ,  - || - {} {} Batch acquisition of 1 triggers 

05/01/2022 09:43:00.010 - DEBUG {4} - Quartz.Simpl.SimpleJobFactory.NewJob { - } {} ,  - || - {} {} Producing instance of Job 'MasterJobGroup.MasterJob', class=CU.Job.MasterJob 

05/01/2022 09:43:00.010 - DEBUG {106} - Quartz.Core.JobRunShell.Run { - } {} ,  - || - {} {} Calling Execute on job MasterJobGroup.MasterJob 

05/01/2022 09:43:00.010 - DEBUG {4} - Quartz.Logging.LogProviders.NLogLogProvider+NLogLogger.Log { - } {} ,  - || - {} {} Batch acquisition of 0 triggers 

05/01/2022 09:43:00.034 - DEBUG {107} - Quartz.Core.JobRunShell+<Run>d__10.MoveNext { - } {} ,  - || - {} {} Trigger instruction : NoInstruction 

05/01/2022 09:43:00.034 - DEBUG {4} - Quartz.Logging.LogProviders.NLogLogProvider+NLogLogger.Log { - } {} ,  - || - {} {} Batch acquisition of 0 triggers 

05/01/2022 09:43:28.549 - DEBUG {4} - Quartz.Logging.LogProviders.NLogLogProvider+NLogLogger.Log { - } {} ,  - || - {} {} Batch acquisition of 0 triggers 

05/01/2022 09:43:57.320 - DEBUG {4} - Quartz.Logging.LogProviders.NLogLogProvider+NLogLogger.Log { - } {} ,  - || - {} {} Batch acquisition of 1 triggers 

05/01/2022 09:44:00.009 - DEBUG {4} - Quartz.Simpl.SimpleJobFactory.NewJob { - } {} ,  - || - {} {} Producing instance of Job 'MasterJobGroup.MasterJob', class=CU.Job.MasterJob 

05/01/2022 09:44:00.014 - DEBUG {103} - Quartz.Core.JobRunShell.Run { - } {} ,  - || - {} {} Calling Execute on job MasterJobGroup.MasterJob 

05/01/2022 09:44:00.014 - DEBUG {4} - Quartz.Logging.LogProviders.NLogLogProvider+NLogLogger.Log { - } {} ,  - || - {} {} Batch acquisition of 0 triggers 

05/01/2022 09:44:00.050 - DEBUG {103} - Quartz.Core.JobRunShell+<Run>d__10.MoveNext { - } {} ,  - || - {} {} Trigger instruction : NoInstruction 

05/01/2022 09:44:00.050 - DEBUG {4} - Quartz.Logging.LogProviders.NLogLogProvider+NLogLogger.Log { - } {} ,  - || - {} {} Batch acquisition of 0 triggers 

05/01/2022 09:44:29.417 - DEBUG {4} - Quartz.Logging.LogProviders.NLogLogProvider+NLogLogger.Log { - } {} ,  - || - {} {} Batch acquisition of 0 triggers 

05/01/2022 09:44:56.809 - DEBUG {4} - Quartz.Logging.LogProviders.NLogLogProvider+NLogLogger.Log { - } {} ,  - || - {} {} Batch acquisition of 1 triggers 

05/01/2022 09:45:00.009 - DEBUG {4} - Quartz.Simpl.SimpleJobFactory.NewJob { - } {} ,  - || - {} {} Producing instance of Job 'MasterJobGroup.MasterJob', class=CU.Job.MasterJob 

05/01/2022 09:45:00.014 - DEBUG {96} - Quartz.Core.JobRunShell.Run { - } {} ,  - || - {} {} Calling Execute on job MasterJobGroup.MasterJob 

05/01/2022 09:45:00.014 - DEBUG {4} - Quartz.Logging.LogProviders.NLogLogProvider+NLogLogger.Log { - } {} ,  - || - {} {} Batch acquisition of 0 triggers 

05/01/2022 09:45:00.050 - DEBUG {96} - Quartz.Core.JobRunShell+<Run>d__10.MoveNext { - } {} ,  - || - {} {} Trigger instruction : NoInstruction 

05/01/2022 09:45:00.050 - DEBUG {4} - Quartz.Logging.LogProviders.NLogLogProvider+NLogLogger.Log { - } {} ,  - || - {} {} Batch acquisition of 0 triggers 

05/01/2022 09:45:25.585 - DEBUG {4} - Quartz.Logging.LogProviders.NLogLogProvider+NLogLogger.Log { - } {} ,  - || - {} {} Batch acquisition of 0 triggers 

05/01/2022 09:45:51.384 - DEBUG {4} - Quartz.Logging.LogProviders.NLogLogProvider+NLogLogger.Log { - } {} ,  - || - {} {} Batch acquisition of 1 triggers 

05/01/2022 09:46:00.013 - DEBUG {4} - Quartz.Simpl.SimpleJobFactory.NewJob { - } {} ,  - || - {} {} Producing instance of Job 'MasterJobGroup.MasterJob', class=CU.Job.MasterJob 

05/01/2022 09:46:00.013 - DEBUG {95} - Quartz.Core.JobRunShell.Run { - } {} ,  - || - {} {} Calling Execute on job MasterJobGroup.MasterJob 

05/01/2022 09:46:00.013 - DEBUG {4} - Quartz.Logging.LogProviders.NLogLogProvider+NLogLogger.Log { - } {} ,  - || - {} {} Batch acquisition of 0 triggers 

05/01/2022 09:46:00.075 - DEBUG {93} - Quartz.Core.JobRunShell+<Run>d__10.MoveNext { - } {} ,  - || - {} {} Trigger instruction : NoInstruction 

05/01/2022 09:46:00.075 - DEBUG {4} - Quartz.Logging.LogProviders.NLogLogProvider+NLogLogger.Log { - } {} ,  - || - {} {} Batch acquisition of 0 triggers 

05/01/2022 09:46:25.713 - DEBUG {4} - Quartz.Logging.LogProviders.NLogLogProvider+NLogLogger.Log { - } {} ,  - || - {} {} Batch acquisition of 0 triggers 

05/01/2022 09:46:49.075 - DEBUG {4} - Quartz.Logging.LogProviders.NLogLogProvider+NLogLogger.Log { - } {} ,  - || - {} {} Batch acquisition of 1 triggers 

05/01/2022 09:47:00.008 - DEBUG {4} - Quartz.Simpl.SimpleJobFactory.NewJob { - } {} ,  - || - {} {} Producing instance of Job 'MasterJobGroup.MasterJob', class=CU.Job.MasterJob 

05/01/2022 09:47:00.010 - DEBUG {4} - Quartz.Logging.LogProviders.NLogLogProvider+NLogLogger.Log { - } {} ,  - || - {} {} Batch acquisition of 0 triggers 

05/01/2022 09:47:00.010 - DEBUG {90} - Quartz.Core.JobRunShell.Run { - } {} ,  - || - {} {} Calling Execute on job MasterJobGroup.MasterJob 

05/01/2022 09:47:00.040 - DEBUG {92} - Quartz.Core.JobRunShell+<Run>d__10.MoveNext { - } {} ,  - || - {} {} Trigger instruction : NoInstruction 

05/01/2022 09:47:00.040 - DEBUG {4} - Quartz.Logging.LogProviders.NLogLogProvider+NLogLogger.Log { - } {} ,  - || - {} {} Batch acquisition of 0 triggers 

05/01/2022 09:47:25.397 - DEBUG {4} - Quartz.Logging.LogProviders.NLogLogProvider+NLogLogger.Log { - } {} ,  - || - {} {} Batch acquisition of 0 triggers 

05/01/2022 09:47:52.946 - DEBUG {4} - Quartz.Logging.LogProviders.NLogLogProvider+NLogLogger.Log { - } {} ,  - || - {} {} Batch acquisition of 1 triggers 

05/01/2022 09:48:00.007 - DEBUG {4} - Quartz.Simpl.SimpleJobFactory.NewJob { - } {} ,  - || - {} {} Producing instance of Job 'MasterJobGroup.MasterJob', class=CU.Job.MasterJob 

05/01/2022 09:48:00.007 - DEBUG {89} - Quartz.Core.JobRunShell.Run { - } {} ,  - || - {} {} Calling Execute on job MasterJobGroup.MasterJob 

05/01/2022 09:48:00.007 - DEBUG {4} - Quartz.Logging.LogProviders.NLogLogProvider+NLogLogger.Log { - } {} ,  - || - {} {} Batch acquisition of 0 triggers 

05/01/2022 09:48:00.063 - DEBUG {89} - Quartz.Core.JobRunShell+<Run>d__10.MoveNext { - } {} ,  - || - {} {} Trigger instruction : NoInstruction 

05/01/2022 09:48:00.063 - DEBUG {4} - Quartz.Logging.LogProviders.NLogLogProvider+NLogLogger.Log { - } {} ,  - || - {} {} Batch acquisition of 0 triggers 

05/01/2022 09:48:29.306 - DEBUG {4} - Quartz.Logging.LogProviders.NLogLogProvider+NLogLogger.Log { - } {} ,  - || - {} {} Batch acquisition of 0 triggers 

05/01/2022 09:48:55.426 - DEBUG {4} - Quartz.Logging.LogProviders.NLogLogProvider+NLogLogger.Log { - } {} ,  - || - {} {} Batch acquisition of 1 triggers 

05/01/2022 09:49:00.007 - DEBUG {4} - Quartz.Simpl.SimpleJobFactory.NewJob { - } {} ,  - || - {} {} Producing instance of Job 'MasterJobGroup.MasterJob', class=CU.Job.MasterJob 

05/01/2022 09:49:00.007 - DEBUG {85} - Quartz.Core.JobRunShell.Run { - } {} ,  - || - {} {} Calling Execute on job MasterJobGroup.MasterJob 

05/01/2022 09:49:00.007 - DEBUG {4} - Quartz.Logging.LogProviders.NLogLogProvider+NLogLogger.Log { - } {} ,  - || - {} {} Batch acquisition of 0 triggers 

05/01/2022 09:49:00.039 - DEBUG {85} - Quartz.Core.JobRunShell+<Run>d__10.MoveNext { - } {} ,  - || - {} {} Trigger instruction : NoInstruction 

05/01/2022 09:49:00.039 - DEBUG {4} - Quartz.Logging.LogProviders.NLogLogProvider+NLogLogger.Log { - } {} ,  - || - {} {} Batch acquisition of 0 triggers 

05/01/2022 09:49:23.203 - DEBUG {4} - Quartz.Logging.LogProviders.NLogLogProvider+NLogLogger.Log { - } {} ,  - || - {} {} Batch acquisition of 0 triggers 

05/01/2022 09:49:48.676 - DEBUG {4} - Quartz.Logging.LogProviders.NLogLogProvider+NLogLogger.Log { - } {} ,  - || - {} {} Batch acquisition of 1 triggers 

05/01/2022 09:50:00.010 - DEBUG {4} - Quartz.Simpl.SimpleJobFactory.NewJob { - } {} ,  - || - {} {} Producing instance of Job 'MasterJobGroup.MasterJob', class=CU.Job.MasterJob 

05/01/2022 09:50:00.010 - DEBUG {4} - Quartz.Logging.LogProviders.NLogLogProvider+NLogLogger.Log { - } {} ,  - || - {} {} Batch acquisition of 0 triggers 

05/01/2022 09:50:00.010 - DEBUG {81} - Quartz.Core.JobRunShell.Run { - } {} ,  - || - {} {} Calling Execute on job MasterJobGroup.MasterJob 

05/01/2022 09:50:00.047 - DEBUG {81} - Quartz.Core.JobRunShell+<Run>d__10.MoveNext { - } {} ,  - || - {} {} Trigger instruction : NoInstruction 

05/01/2022 09:50:00.047 - DEBUG {4} - Quartz.Logging.LogProviders.NLogLogProvider+NLogLogger.Log { - } {} ,  - || - {} {} Batch acquisition of 0 triggers 

05/01/2022 09:50:28.413 - DEBUG {4} - Quartz.Logging.LogProviders.NLogLogProvider+NLogLogger.Log { - } {} ,  - || - {} {} Batch acquisition of 0 triggers 

05/01/2022 09:50:58.193 - DEBUG {4} - Quartz.Logging.LogProviders.NLogLogProvider+NLogLogger.Log { - } {} ,  - || - {} {} Batch acquisition of 1 triggers 

05/01/2022 09:51:00.009 - DEBUG {4} - Quartz.Simpl.SimpleJobFactory.NewJob { - } {} ,  - || - {} {} Producing instance of Job 'MasterJobGroup.MasterJob', class=CU.Job.MasterJob 

05/01/2022 09:51:00.009 - DEBUG {4} - Quartz.Logging.LogProviders.NLogLogProvider+NLogLogger.Log { - } {} ,  - || - {} {} Batch acquisition of 0 triggers 

05/01/2022 09:51:00.009 - DEBUG {74} - Quartz.Core.JobRunShell.Run { - } {} ,  - || - {} {} Calling Execute on job MasterJobGroup.MasterJob 

05/01/2022 09:51:00.051 - DEBUG {74} - Quartz.Core.JobRunShell+<Run>d__10.MoveNext { - } {} ,  - || - {} {} Trigger instruction : NoInstruction 

05/01/2022 09:51:00.051 - DEBUG {4} - Quartz.Logging.LogProviders.NLogLogProvider+NLogLogger.Log { - } {} ,  - || - {} {} Batch acquisition of 0 triggers 

05/01/2022 09:51:26.227 - DEBUG {4} - Quartz.Logging.LogProviders.NLogLogProvider+NLogLogger.Log { - } {} ,  - || - {} {} Batch acquisition of 0 triggers 

05/01/2022 09:51:54.820 - DEBUG {4} - Quartz.Logging.LogProviders.NLogLogProvider+NLogLogger.Log { - } {} ,  - || - {} {} Batch acquisition of 1 triggers 

05/01/2022 09:52:00.004 - DEBUG {4} - Quartz.Simpl.SimpleJobFactory.NewJob { - } {} ,  - || - {} {} Producing instance of Job 'MasterJobGroup.MasterJob', class=CU.Job.MasterJob 

05/01/2022 09:52:00.009 - DEBUG {72} - Quartz.Core.JobRunShell.Run { - } {} ,  - || - {} {} Calling Execute on job MasterJobGroup.MasterJob 

05/01/2022 09:52:00.009 - DEBUG {4} - Quartz.Logging.LogProviders.NLogLogProvider+NLogLogger.Log { - } {} ,  - || - {} {} Batch acquisition of 0 triggers 

05/01/2022 09:52:00.047 - DEBUG {72} - Quartz.Core.JobRunShell+<Run>d__10.MoveNext { - } {} ,  - || - {} {} Trigger instruction : NoInstruction 

05/01/2022 09:52:00.047 - DEBUG {4} - Quartz.Logging.LogProviders.NLogLogProvider+NLogLogger.Log { - } {} ,  - || - {} {} Batch acquisition of 0 triggers 

05/01/2022 09:52:26.816 - DEBUG {4} - Quartz.Logging.LogProviders.NLogLogProvider+NLogLogger.Log { - } {} ,  - || - {} {} Batch acquisition of 0 triggers 

05/01/2022 09:52:53.092 - DEBUG {4} - Quartz.Logging.LogProviders.NLogLogProvider+NLogLogger.Log { - } {} ,  - || - {} {} Batch acquisition of 1 triggers 

05/01/2022 09:53:00.004 - DEBUG {4} - Quartz.Simpl.SimpleJobFactory.NewJob { - } {} ,  - || - {} {} Producing instance of Job 'MasterJobGroup.MasterJob', class=CU.Job.MasterJob 

05/01/2022 09:53:00.004 - DEBUG {4} - Quartz.Logging.LogProviders.NLogLogProvider+NLogLogger.Log { - } {} ,  - || - {} {} Batch acquisition of 0 triggers 

05/01/2022 09:53:00.004 - DEBUG {68} - Quartz.Core.JobRunShell.Run { - } {} ,  - || - {} {} Calling Execute on job MasterJobGroup.MasterJob 

05/01/2022 09:53:00.054 - DEBUG {68} - Quartz.Core.JobRunShell+<Run>d__10.MoveNext { - } {} ,  - || - {} {} Trigger instruction : NoInstruction 

05/01/2022 09:53:00.054 - DEBUG {4} - Quartz.Logging.LogProviders.NLogLogProvider+NLogLogger.Log { - } {} ,  - || - {} {} Batch acquisition of 0 triggers 

05/01/2022 09:53:29.693 - DEBUG {4} - Quartz.Logging.LogProviders.NLogLogProvider+NLogLogger.Log { - } {} ,  - || - {} {} Batch acquisition of 0 triggers 

05/01/2022 09:53:58.062 - DEBUG {4} - Quartz.Logging.LogProviders.NLogLogProvider+NLogLogger.Log { - } {} ,  - || - {} {} Batch acquisition of 1 triggers 

05/01/2022 09:54:00.011 - DEBUG {4} - Quartz.Simpl.SimpleJobFactory.NewJob { - } {} ,  - || - {} {} Producing instance of Job 'MasterJobGroup.MasterJob', class=CU.Job.MasterJob 

05/01/2022 09:54:00.011 - DEBUG {4} - Quartz.Logging.LogProviders.NLogLogProvider+NLogLogger.Log { - } {} ,  - || - {} {} Batch acquisition of 0 triggers 

05/01/2022 09:54:00.011 - DEBUG {63} - Quartz.Core.JobRunShell.Run { - } {} ,  - || - {} {} Calling Execute on job MasterJobGroup.MasterJob 

05/01/2022 09:54:00.067 - DEBUG {62} - Quartz.Core.JobRunShell+<Run>d__10.MoveNext { - } {} ,  - || - {} {} Trigger instruction : NoInstruction 

05/01/2022 09:54:00.067 - DEBUG {4} - Quartz.Logging.LogProviders.NLogLogProvider+NLogLogger.Log { - } {} ,  - || - {} {} Batch acquisition of 0 triggers 

05/01/2022 09:54:23.187 - DEBUG {4} - Quartz.Logging.LogProviders.NLogLogProvider+NLogLogger.Log { - } {} ,  - || - {} {} Batch acquisition of 0 triggers 

05/01/2022 09:54:48.579 - DEBUG {4} - Quartz.Logging.LogProviders.NLogLogProvider+NLogLogger.Log { - } {} ,  - || - {} {} Batch acquisition of 1 triggers 

05/01/2022 09:55:00.014 - DEBUG {4} - Quartz.Simpl.SimpleJobFactory.NewJob { - } {} ,  - || - {} {} Producing instance of Job 'MasterJobGroup.MasterJob', class=CU.Job.MasterJob 

05/01/2022 09:55:00.014 - DEBUG {60} - Quartz.Core.JobRunShell.Run { - } {} ,  - || - {} {} Calling Execute on job MasterJobGroup.MasterJob 

05/01/2022 09:55:00.014 - DEBUG {4} - Quartz.Logging.LogProviders.NLogLogProvider+NLogLogger.Log { - } {} ,  - || - {} {} Batch acquisition of 0 triggers 

05/01/2022 09:55:00.042 - DEBUG {60} - Quartz.Core.JobRunShell+<Run>d__10.MoveNext { - } {} ,  - || - {} {} Trigger instruction : NoInstruction 

05/01/2022 09:55:00.042 - DEBUG {4} - Quartz.Logging.LogProviders.NLogLogProvider+NLogLogger.Log { - } {} ,  - || - {} {} Batch acquisition of 0 triggers 

05/01/2022 09:55:26.129 - DEBUG {4} - Quartz.Logging.LogProviders.NLogLogProvider+NLogLogger.Log { - } {} ,  - || - {} {} Batch acquisition of 0 triggers 

05/01/2022 09:55:53.256 - DEBUG {4} - Quartz.Logging.LogProviders.NLogLogProvider+NLogLogger.Log { - } {} ,  - || - {} {} Batch acquisition of 1 triggers 

05/01/2022 09:56:00.007 - DEBUG {4} - Quartz.Simpl.SimpleJobFactory.NewJob { - } {} ,  - || - {} {} Producing instance of Job 'MasterJobGroup.MasterJob', class=CU.Job.MasterJob 

05/01/2022 09:56:00.007 - DEBUG {4} - Quartz.Logging.LogProviders.NLogLogProvider+NLogLogger.Log { - } {} ,  - || - {} {} Batch acquisition of 0 triggers 

05/01/2022 09:56:00.007 - DEBUG {56} - Quartz.Core.JobRunShell.Run { - } {} ,  - || - {} {} Calling Execute on job MasterJobGroup.MasterJob 

05/01/2022 09:56:00.094 - DEBUG {56} - Quartz.Core.JobRunShell+<Run>d__10.MoveNext { - } {} ,  - || - {} {} Trigger instruction : NoInstruction 

05/01/2022 09:56:00.094 - DEBUG {4} - Quartz.Logging.LogProviders.NLogLogProvider+NLogLogger.Log { - } {} ,  - || - {} {} Batch acquisition of 0 triggers 

05/01/2022 09:56:27.962 - DEBUG {4} - Quartz.Logging.LogProviders.NLogLogProvider+NLogLogger.Log { - } {} ,  - || - {} {} Batch acquisition of 0 triggers 

05/01/2022 09:56:55.120 - DEBUG {4} - Quartz.Logging.LogProviders.NLogLogProvider+NLogLogger.Log { - } {} ,  - || - {} {} Batch acquisition of 1 triggers 

05/01/2022 09:57:00.013 - DEBUG {4} - Quartz.Simpl.SimpleJobFactory.NewJob { - } {} ,  - || - {} {} Producing instance of Job 'MasterJobGroup.MasterJob', class=CU.Job.MasterJob 

05/01/2022 09:57:00.013 - DEBUG {4} - Quartz.Logging.LogProviders.NLogLogProvider+NLogLogger.Log { - } {} ,  - || - {} {} Batch acquisition of 0 triggers 

05/01/2022 09:57:00.013 - DEBUG {53} - Quartz.Core.JobRunShell.Run { - } {} ,  - || - {} {} Calling Execute on job MasterJobGroup.MasterJob 

05/01/2022 09:57:00.046 - DEBUG {52} - Quartz.Core.JobRunShell+<Run>d__10.MoveNext { - } {} ,  - || - {} {} Trigger instruction : NoInstruction 

05/01/2022 09:57:00.046 - DEBUG {4} - Quartz.Logging.LogProviders.NLogLogProvider+NLogLogger.Log { - } {} ,  - || - {} {} Batch acquisition of 0 triggers 

05/01/2022 09:57:25.853 - DEBUG {4} - Quartz.Logging.LogProviders.NLogLogProvider+NLogLogger.Log { - } {} ,  - || - {} {} Batch acquisition of 0 triggers 

05/01/2022 09:57:50.086 - DEBUG {4} - Quartz.Logging.LogProviders.NLogLogProvider+NLogLogger.Log { - } {} ,  - || - {} {} Batch acquisition of 1 triggers 

05/01/2022 09:58:00.003 - DEBUG {4} - Quartz.Simpl.SimpleJobFactory.NewJob { - } {} ,  - || - {} {} Producing instance of Job 'MasterJobGroup.MasterJob', class=CU.Job.MasterJob 

05/01/2022 09:58:00.003 - DEBUG {49} - Quartz.Core.JobRunShell.Run { - } {} ,  - || - {} {} Calling Execute on job MasterJobGroup.MasterJob 

05/01/2022 09:58:00.003 - DEBUG {4} - Quartz.Logging.LogProviders.NLogLogProvider+NLogLogger.Log { - } {} ,  - || - {} {} Batch acquisition of 0 triggers 

05/01/2022 09:58:00.047 - DEBUG {49} - Quartz.Core.JobRunShell+<Run>d__10.MoveNext { - } {} ,  - || - {} {} Trigger instruction : NoInstruction 

05/01/2022 09:58:00.047 - DEBUG {4} - Quartz.Logging.LogProviders.NLogLogProvider+NLogLogger.Log { - } {} ,  - || - {} {} Batch acquisition of 0 triggers 

