03/02/2022 09:17:13.556 - INFO {1} - CU.Program.Main { - } {} ,  - || - {} {} ==================Application is starting=================== 

03/02/2022 09:17:13.556 - INFO {1} - CU.Program.Main { - } {} ,  - || - {} {} ==================Application is starting=================== 

03/02/2022 09:17:15.966 - DEBUG {1} - CU.Services.InitService.Init { - } {} ,  - || - {} {} Root path C:\project\Chula\CU_HR\CU_InstructorExperts\CU 

03/02/2022 09:17:21.049 - INFO {1} - Microsoft.Extensions.Hosting.Internal.ConsoleLifetime.OnApplicationStarted { - } {} ,  - || - {} {} Application started. Press Ctrl+C to shut down. 

03/02/2022 09:17:21.049 - INFO {1} - Microsoft.Extensions.Hosting.Internal.ConsoleLifetime.OnApplicationStarted { - } {} ,  - || - {} {} Application started. Press Ctrl+C to shut down. 

03/02/2022 09:17:21.503 - INFO {1} - Microsoft.Extensions.Hosting.Internal.ConsoleLifetime.OnApplicationStarted { - } {} ,  - || - {} {} Hosting environment: Development 

03/02/2022 09:17:21.503 - INFO {1} - Microsoft.Extensions.Hosting.Internal.ConsoleLifetime.OnApplicationStarted { - } {} ,  - || - {} {} Hosting environment: Development 

03/02/2022 09:17:21.519 - INFO {1} - Microsoft.Extensions.Hosting.Internal.ConsoleLifetime.OnApplicationStarted { - } {} ,  - || - {} {} Content root path: C:\project\Chula\CU_HR\CU_InstructorExperts\CU 

03/02/2022 09:17:21.519 - INFO {1} - Microsoft.Extensions.Hosting.Internal.ConsoleLifetime.OnApplicationStarted { - } {} ,  - || - {} {} Content root path: C:\project\Chula\CU_HR\CU_InstructorExperts\CU 

03/02/2022 09:17:28.769 - INFO {19} - CU.Controllers.AccountController.Login {127.0.0.1 - localhost:44391} {http://localhost/} , Mozilla/5.0 (Windows NT 10.0; Win64; x64) AppleWebKit/537.36 (KHTML, like Gecko) Chrome/97.0.4692.99 Safari/537.36 - || - {} {} SystemAdmin logged in (Session : ce9a64ec-a166-40b4-5673-73ae975896f2) 

03/02/2022 09:17:28.769 - INFO {19} - CU.Controllers.AccountController.Login {127.0.0.1 - localhost:44391} {http://localhost/} , Mozilla/5.0 (Windows NT 10.0; Win64; x64) AppleWebKit/537.36 (KHTML, like Gecko) Chrome/97.0.4692.99 Safari/537.36 - || - {} {} SystemAdmin logged in (Session : ce9a64ec-a166-40b4-5673-73ae975896f2) 

